Name, Distance1, puV1, Distance2, puV2, Color, Thickness, Linetype, Markcenter, Centercode, NodeCode, NodeWidth,Title=L-N Voltage Profile, Distance in km
L1, 0, 1.04999, 0.786384, 1.04765,1, 2, 0, 0, 0, 16, 1
L1, 0, 1.04999, 0.786384, 1.04856,2, 2, 0, 0, 0, 16, 1
L1, 0, 1.05, 0.786384, 1.04856,3, 2, 0, 0, 0, 16, 1
L2A, 0.786384, 1.04765, 1.05004, 1.04686,1, 2, 0, 0, 0, 16, 1
L2A, 0.786384, 1.04856, 1.05004, 1.04808,2, 2, 0, 0, 0, 16, 1
L2A, 0.786384, 1.04856, 1.05004, 1.04808,3, 2, 0, 0, 0, 16, 1
L2B, 1.05004, 1.04686, 1.31369, 1.04606,1, 2, 0, 0, 0, 16, 1
L2B, 1.05004, 1.04808, 1.31369, 1.04764,2, 2, 0, 0, 0, 16, 1
L2B, 1.05004, 1.04808, 1.31369, 1.04762,3, 2, 0, 0, 0, 16, 1
L3, 1.31369, 1.04606, 11.1374, 1.01643,1, 2, 0, 0, 0, 16, 1
L3, 1.31369, 1.04764, 11.1374, 1.03141,2, 2, 0, 0, 0, 16, 1
L3, 1.31369, 1.04762, 11.1374, 1.03059,3, 2, 0, 0, 0, 16, 1
L5, 11.1374, 1.01643, 22.5674, 0.981977,1, 2, 0, 0, 0, 16, 1
L5, 11.1374, 1.03141, 22.5674, 1.01357,2, 2, 0, 0, 0, 16, 1
L5, 11.1374, 1.03059, 22.5674, 1.01039,3, 2, 0, 0, 0, 16, 1
L6, 22.5674, 0.981977, 31.6291, 0.954616,1, 2, 0, 0, 0, 16, 1
L6, 22.5674, 1.01357, 31.6291, 0.999477,2, 2, 0, 0, 0, 16, 1
L6, 22.5674, 1.01039, 31.6291, 0.994296,3, 2, 0, 0, 0, 16, 1
L7, 31.6291, 1.0262, 31.6321, 1.02619,1, 2, 0, 0, 0, 16, 1
L7, 31.6291, 1.03071, 31.6321, 1.0307,2, 2, 0, 0, 0, 16, 1
L7, 31.6291, 1.02537, 31.6321, 1.02536,3, 2, 0, 0, 0, 16, 1
L24, 31.6321, 1.02619, 31.7266, 1.02582,1, 2, 0, 0, 0, 16, 1
L24, 31.6321, 1.0307, 31.7266, 1.03047,2, 2, 0, 0, 0, 16, 1
L24, 31.6321, 1.02536, 31.7266, 1.02512,3, 2, 0, 0, 0, 16, 1
L9A, 31.7266, 1.02582, 33.2826, 1.02161,1, 2, 0, 0, 0, 16, 1
L9A, 31.7266, 1.03047, 33.2826, 1.0261,2, 2, 0, 0, 0, 16, 1
L9A, 31.7266, 1.02512, 33.2826, 1.0212,3, 2, 0, 0, 0, 16, 1
L9B, 33.2826, 1.02161, 34.8386, 1.0174,1, 2, 0, 0, 0, 16, 1
L9B, 33.2826, 1.0261, 34.8386, 1.02176,2, 2, 0, 0, 0, 16, 1
L9B, 33.2826, 1.0212, 34.8386, 1.01731,3, 2, 0, 0, 0, 16, 1
L13A, 34.8386, 1.0174, 34.9667, 1.01706,1, 2, 0, 0, 0, 16, 1
L13A, 34.8386, 1.02176, 34.9667, 1.02144,2, 2, 0, 0, 0, 16, 1
L13A, 34.8386, 1.01731, 34.9667, 1.01698,3, 2, 0, 0, 0, 16, 1
L13B, 34.9667, 1.01706, 35.0947, 1.01671,1, 2, 0, 0, 0, 16, 1
L13B, 34.9667, 1.02144, 35.0947, 1.02112,2, 2, 0, 0, 0, 16, 1
L13B, 34.9667, 1.01698, 35.0947, 1.01666,3, 2, 0, 0, 0, 16, 1
L14A, 35.0947, 1.01671, 38.2097, 1.00831,1, 2, 0, 0, 0, 16, 1
L14A, 35.0947, 1.02112, 38.2097, 1.01334,2, 2, 0, 0, 0, 16, 1
L14A, 35.0947, 1.01666, 38.2097, 1.00875,3, 2, 0, 0, 0, 16, 1
L14B, 38.2097, 1.00831, 41.3248, 1.00004,1, 2, 0, 0, 0, 16, 1
L14B, 38.2097, 1.01334, 41.3248, 1.00552,2, 2, 0, 0, 0, 16, 1
L14B, 38.2097, 1.00875, 41.3248, 1.00085,3, 2, 0, 0, 0, 16, 1
L15, 41.3248, 1.00004, 41.4833, 0.99964,1, 2, 0, 0, 0, 16, 1
L15, 41.3248, 1.00552, 41.4833, 1.00514,2, 2, 0, 0, 0, 16, 1
L15, 41.3248, 1.00085, 41.4833, 1.00046,3, 2, 0, 0, 0, 16, 1
L27, 41.4833, 0.99964, 52.7091, 0.971018,1, 2, 0, 0, 0, 16, 1
L27, 41.4833, 1.00514, 52.7091, 0.97772,2, 2, 0, 0, 0, 16, 1
L27, 41.4833, 1.00046, 52.7091, 0.973032,3, 2, 0, 0, 0, 16, 1
L25, 52.7091, 1.04991, 52.7121, 1.0499,1, 2, 0, 0, 0, 16, 1
L25, 52.7091, 1.04494, 52.7121, 1.04493,2, 2, 0, 0, 0, 16, 1
L25, 52.7091, 1.04601, 52.7121, 1.046,3, 2, 0, 0, 0, 16, 1
L32, 52.7121, 1.01576, 55.9308, 0.937822,1, 2, 0, 0, 0, 16, 1
L32, 52.7121, 1.01097, 55.9308, 0.940703,2, 2, 0, 0, 0, 16, 1
L32, 52.7121, 1.01216, 55.9308, 0.934821,3, 2, 0, 0, 0, 16, 1
L16A, 52.7121, 1.0499, 53.4589, 1.04882,1, 2, 0, 0, 0, 16, 1
L16A, 52.7121, 1.04493, 53.4589, 1.04385,2, 2, 0, 0, 0, 16, 1
L16A, 52.7121, 1.046, 53.4589, 1.04499,3, 2, 0, 0, 0, 16, 1
L16B, 53.4589, 1.04882, 54.2056, 1.04776,1, 2, 0, 0, 0, 16, 1
L16B, 53.4589, 1.04385, 54.2056, 1.0428,2, 2, 0, 0, 0, 16, 1
L16B, 53.4589, 1.04499, 54.2056, 1.044,3, 2, 0, 0, 0, 16, 1
L28A, 54.2056, 1.04776, 54.4525, 1.04776,1, 2, 0, 0, 0, 16, 1
L28B, 54.4525, 1.04776, 54.6994, 1.04776,1, 2, 0, 0, 0, 16, 1
L29A, 54.2056, 1.04776, 55.0941, 1.04652,1, 2, 0, 0, 0, 16, 1
L29A, 54.2056, 1.0428, 55.0941, 1.04154,2, 2, 0, 0, 0, 16, 1
L29A, 54.2056, 1.044, 55.0941, 1.04282,3, 2, 0, 0, 0, 16, 1
L29B, 55.0941, 1.04652, 55.9826, 1.04532,1, 2, 0, 0, 0, 16, 1
L29B, 55.0941, 1.04154, 55.9826, 1.04033,2, 2, 0, 0, 0, 16, 1
L29B, 55.0941, 1.04282, 55.9826, 1.04171,3, 2, 0, 0, 0, 16, 1
L17A, 55.9826, 1.04532, 56.2905, 1.04505,1, 2, 0, 0, 0, 16, 1
L17A, 55.9826, 1.04033, 56.2905, 1.04012,2, 2, 0, 0, 0, 16, 1
L17A, 55.9826, 1.04171, 56.2905, 1.04147,3, 2, 0, 0, 0, 16, 1
L17B, 56.2905, 1.04505, 56.5983, 1.04491,1, 2, 0, 0, 0, 16, 1
L17B, 56.2905, 1.04012, 56.5983, 1.03993,2, 2, 0, 0, 0, 16, 1
L17B, 56.2905, 1.04147, 56.5983, 1.04136,3, 2, 0, 0, 0, 16, 1
L30A, 56.5983, 1.04491, 57.0067, 1.04477,1, 2, 0, 0, 0, 16, 1
L30A, 56.5983, 1.03993, 57.0067, 1.03974,2, 2, 0, 0, 0, 16, 1
L30A, 56.5983, 1.04136, 57.0067, 1.04127,3, 2, 0, 0, 0, 16, 1
L30B, 57.0067, 1.04477, 57.4152, 1.04472,1, 2, 0, 0, 0, 16, 1
L30B, 57.0067, 1.03974, 57.4152, 1.03959,2, 2, 0, 0, 0, 16, 1
L30B, 57.0067, 1.04127, 57.4152, 1.04123,3, 2, 0, 0, 0, 16, 1
L20, 57.4152, 1.04472, 57.5005, 1.04472,1, 2, 0, 0, 0, 16, 1
L20, 57.4152, 1.03959, 57.5005, 1.03957,2, 2, 0, 0, 0, 16, 1
L20, 57.4152, 1.04123, 57.5005, 1.04123,3, 2, 0, 0, 0, 16, 1
L31A, 57.5005, 1.03957, 58.2412, 1.03942,2, 2, 0, 0, 0, 16, 1
L31B, 58.2412, 1.03942, 58.9818, 1.03942,2, 2, 0, 0, 0, 16, 1
L19A, 57.4152, 1.04472, 57.5462, 1.0447,1, 2, 0, 0, 0, 16, 1
L19A, 57.4152, 1.03959, 57.5462, 1.03956,2, 2, 0, 0, 0, 16, 1
L19A, 57.4152, 1.04123, 57.5462, 1.04121,3, 2, 0, 0, 0, 16, 1
L19B, 57.5462, 1.0447, 57.6773, 1.04469,1, 2, 0, 0, 0, 16, 1
L19B, 57.5462, 1.03956, 57.6773, 1.03956,2, 2, 0, 0, 0, 16, 1
L19B, 57.5462, 1.04121, 57.6773, 1.04121,3, 2, 0, 0, 0, 16, 1
L18, 55.9826, 1.04532, 56.068, 1.04527,1, 2, 0, 0, 0, 16, 1
L18, 55.9826, 1.04033, 56.068, 1.04027,2, 2, 0, 0, 0, 16, 1
L18, 55.9826, 1.04171, 56.068, 1.04167,3, 2, 0, 0, 0, 16, 1
L21A, 56.068, 1.04527, 56.2737, 1.04517,1, 2, 0, 0, 0, 16, 1
L21A, 56.068, 1.04027, 56.2737, 1.04013,2, 2, 0, 0, 0, 16, 1
L21A, 56.068, 1.04167, 56.2737, 1.04157,3, 2, 0, 0, 0, 16, 1
L21B, 56.2737, 1.04517, 56.4794, 1.04508,1, 2, 0, 0, 0, 16, 1
L21B, 56.2737, 1.04013, 56.4794, 1.03999,2, 2, 0, 0, 0, 16, 1
L21B, 56.2737, 1.04157, 56.4794, 1.04148,3, 2, 0, 0, 0, 16, 1
L22A, 56.4794, 1.04508, 57.0342, 1.04523,1, 2, 0, 0, 0, 16, 1
L22A, 56.4794, 1.03999, 57.0342, 1.03995,2, 2, 0, 0, 0, 16, 1
L22A, 56.4794, 1.04148, 57.0342, 1.04159,3, 2, 0, 0, 0, 16, 1
L22B, 57.0342, 1.04523, 57.5889, 1.04537,1, 2, 0, 0, 0, 16, 1
L22B, 57.0342, 1.03995, 57.5889, 1.04,2, 2, 0, 0, 0, 16, 1
L22B, 57.0342, 1.04159, 57.5889, 1.04177,3, 2, 0, 0, 0, 16, 1
L23A, 57.5889, 1.04537, 57.6697, 1.04539,1, 2, 0, 0, 0, 16, 1
L23A, 57.5889, 1.04, 57.6697, 1.04001,2, 2, 0, 0, 0, 16, 1
L23A, 57.5889, 1.04177, 57.6697, 1.0418,3, 2, 0, 0, 0, 16, 1
L23B, 57.6697, 1.04539, 57.7505, 1.04541,1, 2, 0, 0, 0, 16, 1
L23B, 57.6697, 1.04001, 57.7505, 1.04004,2, 2, 0, 0, 0, 16, 1
L23B, 57.6697, 1.0418, 57.7505, 1.04182,3, 2, 0, 0, 0, 16, 1
L26A, 41.4833, 1.00514, 45.0388, 1.00504,2, 2, 0, 0, 0, 16, 1
L26B, 45.0388, 1.00504, 48.5943, 1.00506,2, 2, 0, 0, 0, 16, 1
L12A, 34.8386, 1.02176, 35.3004, 1.02157,2, 2, 0, 0, 0, 16, 1
L12B, 35.3004, 1.02157, 35.7622, 1.02157,2, 2, 0, 0, 0, 16, 1
L8, 31.7266, 1.02582, 32.2478, 1.02496,1, 2, 0, 0, 0, 16, 1
L10A, 32.2478, 1.02496, 39.5859, 1.0127,1, 2, 0, 0, 0, 16, 1
L10B, 39.5859, 1.0127, 46.924, 1.00285,1, 2, 0, 0, 0, 16, 1
L11A, 46.924, 1.00285, 49.0179, 1.00001,1, 2, 0, 0, 0, 16, 1
L11B, 49.0179, 1.00001, 51.1119, 1.00002,1, 2, 0, 0, 0, 16, 1
L4A, 11.1374, 1.03141, 12.0219, 1.03127,2, 2, 0, 0, 0, 16, 1
L4B, 12.0219, 1.03127, 12.9065, 1.03127,2, 2, 0, 0, 0, 16, 1
