Name, Distance1, puV1, Distance2, puV2, Color, Thickness, Linetype, Markcenter, Centercode, NodeCode, NodeWidth,Title=L-N Voltage Profile, Distance in km
L1, 0, 1.05, 0.786384, 1.04848,1, 2, 0, 0, 0, 16, 1
L1, 0, 1.05, 0.786384, 1.04913,2, 2, 0, 0, 0, 16, 1
L1, 0, 1.05, 0.786384, 1.04911,3, 2, 0, 0, 0, 16, 1
L2A, 0.786384, 1.04848, 1.05004, 1.04797,1, 2, 0, 0, 0, 16, 1
L2A, 0.786384, 1.04913, 1.05004, 1.04883,2, 2, 0, 0, 0, 16, 1
L2A, 0.786384, 1.04911, 1.05004, 1.04881,3, 2, 0, 0, 0, 16, 1
L2B, 1.05004, 1.04797, 1.31369, 1.04746,1, 2, 0, 0, 0, 16, 1
L2B, 1.05004, 1.04883, 1.31369, 1.04857,2, 2, 0, 0, 0, 16, 1
L2B, 1.05004, 1.04881, 1.31369, 1.04853,3, 2, 0, 0, 0, 16, 1
L3, 1.31369, 1.04746, 11.1374, 1.02832,1, 2, 0, 0, 0, 16, 1
L3, 1.31369, 1.04857, 11.1374, 1.03889,2, 2, 0, 0, 0, 16, 1
L3, 1.31369, 1.04853, 11.1374, 1.03806,3, 2, 0, 0, 0, 16, 1
L5, 11.1374, 1.02832, 22.5674, 1.00607,1, 2, 0, 0, 0, 16, 1
L5, 11.1374, 1.03889, 22.5674, 1.02834,2, 2, 0, 0, 0, 16, 1
L5, 11.1374, 1.03806, 22.5674, 1.02559,3, 2, 0, 0, 0, 16, 1
L6, 22.5674, 1.00607, 31.6291, 0.988394,1, 2, 0, 0, 0, 16, 1
L6, 22.5674, 1.02834, 31.6291, 1.02,2, 2, 0, 0, 0, 16, 1
L6, 22.5674, 1.02559, 31.6291, 1.01564,3, 2, 0, 0, 0, 16, 1
L7, 31.6291, 1.06252, 31.6321, 1.06252,1, 2, 0, 0, 0, 16, 1
L7, 31.6291, 1.05188, 31.6321, 1.05188,2, 2, 0, 0, 0, 16, 1
L7, 31.6291, 1.04738, 31.6321, 1.04737,3, 2, 0, 0, 0, 16, 1
L24, 31.6321, 1.06252, 31.7266, 1.06227,1, 2, 0, 0, 0, 16, 1
L24, 31.6321, 1.05188, 31.7266, 1.05173,2, 2, 0, 0, 0, 16, 1
L24, 31.6321, 1.04737, 31.7266, 1.04721,3, 2, 0, 0, 0, 16, 1
L9A, 31.7266, 1.06227, 33.2826, 1.05946,1, 2, 0, 0, 0, 16, 1
L9A, 31.7266, 1.05173, 33.2826, 1.04886,2, 2, 0, 0, 0, 16, 1
L9A, 31.7266, 1.04721, 33.2826, 1.04464,3, 2, 0, 0, 0, 16, 1
L9B, 33.2826, 1.05946, 34.8386, 1.05666,1, 2, 0, 0, 0, 16, 1
L9B, 33.2826, 1.04886, 34.8386, 1.04602,2, 2, 0, 0, 0, 16, 1
L9B, 33.2826, 1.04464, 34.8386, 1.04209,3, 2, 0, 0, 0, 16, 1
L13A, 34.8386, 1.05666, 34.9667, 1.05643,1, 2, 0, 0, 0, 16, 1
L13A, 34.8386, 1.04602, 34.9667, 1.04581,2, 2, 0, 0, 0, 16, 1
L13A, 34.8386, 1.04209, 34.9667, 1.04188,3, 2, 0, 0, 0, 16, 1
L13B, 34.9667, 1.05643, 35.0947, 1.0562,1, 2, 0, 0, 0, 16, 1
L13B, 34.9667, 1.04581, 35.0947, 1.0456,2, 2, 0, 0, 0, 16, 1
L13B, 34.9667, 1.04188, 35.0947, 1.04166,3, 2, 0, 0, 0, 16, 1
L14A, 35.0947, 1.0562, 38.2097, 1.05061,1, 2, 0, 0, 0, 16, 1
L14A, 35.0947, 1.0456, 38.2097, 1.04057,2, 2, 0, 0, 0, 16, 1
L14A, 35.0947, 1.04166, 38.2097, 1.03647,3, 2, 0, 0, 0, 16, 1
L14B, 38.2097, 1.05061, 41.3248, 1.04512,1, 2, 0, 0, 0, 16, 1
L14B, 38.2097, 1.04057, 41.3248, 1.03552,2, 2, 0, 0, 0, 16, 1
L14B, 38.2097, 1.03647, 41.3248, 1.03128,3, 2, 0, 0, 0, 16, 1
L15, 41.3248, 1.04512, 41.4833, 1.04485,1, 2, 0, 0, 0, 16, 1
L15, 41.3248, 1.03552, 41.4833, 1.03526,2, 2, 0, 0, 0, 16, 1
L15, 41.3248, 1.03128, 41.4833, 1.03103,3, 2, 0, 0, 0, 16, 1
L27, 41.4833, 1.04485, 52.7091, 1.02593,1, 2, 0, 0, 0, 16, 1
L27, 41.4833, 1.03526, 52.7091, 1.01755,2, 2, 0, 0, 0, 16, 1
L27, 41.4833, 1.03103, 52.7091, 1.01312,3, 2, 0, 0, 0, 16, 1
L25, 52.7091, 1.10929, 52.7121, 1.10929,1, 2, 0, 0, 0, 16, 1
L25, 52.7091, 1.0875, 52.7121, 1.0875,2, 2, 0, 0, 0, 16, 1
L25, 52.7091, 1.08911, 52.7121, 1.08911,3, 2, 0, 0, 0, 16, 1
L32, 52.7121, 1.08486, 55.9308, 1.02867,1, 2, 0, 0, 0, 16, 1
L32, 52.7121, 1.06315, 55.9308, 1.01264,2, 2, 0, 0, 0, 16, 1
L32, 52.7121, 1.06493, 55.9308, 1.00924,3, 2, 0, 0, 0, 16, 1
L16A, 52.7121, 1.10929, 53.4589, 1.10861,1, 2, 0, 0, 0, 16, 1
L16A, 52.7121, 1.0875, 53.4589, 1.08685,2, 2, 0, 0, 0, 16, 1
L16A, 52.7121, 1.08911, 53.4589, 1.0885,3, 2, 0, 0, 0, 16, 1
L16B, 53.4589, 1.10861, 54.2056, 1.10796,1, 2, 0, 0, 0, 16, 1
L16B, 53.4589, 1.08685, 54.2056, 1.08622,2, 2, 0, 0, 0, 16, 1
L16B, 53.4589, 1.0885, 54.2056, 1.0879,3, 2, 0, 0, 0, 16, 1
L28A, 54.2056, 1.10796, 54.4525, 1.10796,1, 2, 0, 0, 0, 16, 1
L28B, 54.4525, 1.10796, 54.6994, 1.10796,1, 2, 0, 0, 0, 16, 1
L29A, 54.2056, 1.10796, 55.0941, 1.10719,1, 2, 0, 0, 0, 16, 1
L29A, 54.2056, 1.08622, 55.0941, 1.08546,2, 2, 0, 0, 0, 16, 1
L29A, 54.2056, 1.0879, 55.0941, 1.08719,3, 2, 0, 0, 0, 16, 1
L29B, 55.0941, 1.10719, 55.9826, 1.10645,1, 2, 0, 0, 0, 16, 1
L29B, 55.0941, 1.08546, 55.9826, 1.08474,2, 2, 0, 0, 0, 16, 1
L29B, 55.0941, 1.08719, 55.9826, 1.08653,3, 2, 0, 0, 0, 16, 1
L17A, 55.9826, 1.10645, 56.2905, 1.10625,1, 2, 0, 0, 0, 16, 1
L17A, 55.9826, 1.08474, 56.2905, 1.08459,2, 2, 0, 0, 0, 16, 1
L17A, 55.9826, 1.08653, 56.2905, 1.08635,3, 2, 0, 0, 0, 16, 1
L17B, 56.2905, 1.10625, 56.5983, 1.10614,1, 2, 0, 0, 0, 16, 1
L17B, 56.2905, 1.08459, 56.5983, 1.08445,2, 2, 0, 0, 0, 16, 1
L17B, 56.2905, 1.08635, 56.5983, 1.08627,3, 2, 0, 0, 0, 16, 1
L30A, 56.5983, 1.10614, 57.0067, 1.10604,1, 2, 0, 0, 0, 16, 1
L30A, 56.5983, 1.08445, 57.0067, 1.08431,2, 2, 0, 0, 0, 16, 1
L30A, 56.5983, 1.08627, 57.0067, 1.0862,3, 2, 0, 0, 0, 16, 1
L30B, 57.0067, 1.10604, 57.4152, 1.106,1, 2, 0, 0, 0, 16, 1
L30B, 57.0067, 1.08431, 57.4152, 1.0842,2, 2, 0, 0, 0, 16, 1
L30B, 57.0067, 1.0862, 57.4152, 1.08617,3, 2, 0, 0, 0, 16, 1
L20, 57.4152, 1.106, 57.5005, 1.10599,1, 2, 0, 0, 0, 16, 1
L20, 57.4152, 1.0842, 57.5005, 1.08418,2, 2, 0, 0, 0, 16, 1
L20, 57.4152, 1.08617, 57.5005, 1.08618,3, 2, 0, 0, 0, 16, 1
L31A, 57.5005, 1.08418, 58.2412, 1.08408,2, 2, 0, 0, 0, 16, 1
L31B, 58.2412, 1.08408, 58.9818, 1.08408,2, 2, 0, 0, 0, 16, 1
L19A, 57.4152, 1.106, 57.5462, 1.10598,1, 2, 0, 0, 0, 16, 1
L19A, 57.4152, 1.0842, 57.5462, 1.08418,2, 2, 0, 0, 0, 16, 1
L19A, 57.4152, 1.08617, 57.5462, 1.08616,3, 2, 0, 0, 0, 16, 1
L19B, 57.5462, 1.10598, 57.6773, 1.10598,1, 2, 0, 0, 0, 16, 1
L19B, 57.5462, 1.08418, 57.6773, 1.08417,2, 2, 0, 0, 0, 16, 1
L19B, 57.5462, 1.08616, 57.6773, 1.08616,3, 2, 0, 0, 0, 16, 1
L18, 55.9826, 1.10645, 56.068, 1.10643,1, 2, 0, 0, 0, 16, 1
L18, 55.9826, 1.08474, 56.068, 1.08471,2, 2, 0, 0, 0, 16, 1
L18, 55.9826, 1.08653, 56.068, 1.08652,3, 2, 0, 0, 0, 16, 1
L21A, 56.068, 1.10643, 56.2737, 1.10639,1, 2, 0, 0, 0, 16, 1
L21A, 56.068, 1.08471, 56.2737, 1.08465,2, 2, 0, 0, 0, 16, 1
L21A, 56.068, 1.08652, 56.2737, 1.08648,3, 2, 0, 0, 0, 16, 1
L21B, 56.2737, 1.10639, 56.4794, 1.10637,1, 2, 0, 0, 0, 16, 1
L21B, 56.2737, 1.08465, 56.4794, 1.08459,2, 2, 0, 0, 0, 16, 1
L21B, 56.2737, 1.08648, 56.4794, 1.08645,3, 2, 0, 0, 0, 16, 1
L22A, 56.4794, 1.10637, 57.0342, 1.10655,1, 2, 0, 0, 0, 16, 1
L22A, 56.4794, 1.08459, 57.0342, 1.08462,2, 2, 0, 0, 0, 16, 1
L22A, 56.4794, 1.08645, 57.0342, 1.0866,3, 2, 0, 0, 0, 16, 1
L22B, 57.0342, 1.10655, 57.5889, 1.10671,1, 2, 0, 0, 0, 16, 1
L22B, 57.0342, 1.08462, 57.5889, 1.08473,2, 2, 0, 0, 0, 16, 1
L22B, 57.0342, 1.0866, 57.5889, 1.0868,3, 2, 0, 0, 0, 16, 1
L23A, 57.5889, 1.10671, 57.6697, 1.10674,1, 2, 0, 0, 0, 16, 1
L23A, 57.5889, 1.08473, 57.6697, 1.08475,2, 2, 0, 0, 0, 16, 1
L23A, 57.5889, 1.0868, 57.6697, 1.08683,3, 2, 0, 0, 0, 16, 1
L23B, 57.6697, 1.10674, 57.7505, 1.10676,1, 2, 0, 0, 0, 16, 1
L23B, 57.6697, 1.08475, 57.7505, 1.08478,2, 2, 0, 0, 0, 16, 1
L23B, 57.6697, 1.08683, 57.7505, 1.08686,3, 2, 0, 0, 0, 16, 1
L26A, 41.4833, 1.03526, 45.0388, 1.03521,2, 2, 0, 0, 0, 16, 1
L26B, 45.0388, 1.03521, 48.5943, 1.03523,2, 2, 0, 0, 0, 16, 1
L12A, 34.8386, 1.04602, 35.3004, 1.04589,2, 2, 0, 0, 0, 16, 1
L12B, 35.3004, 1.04589, 35.7622, 1.04589,2, 2, 0, 0, 0, 16, 1
L8, 31.7266, 1.06227, 32.2478, 1.06167,1, 2, 0, 0, 0, 16, 1
L10A, 32.2478, 1.06167, 39.5859, 1.05316,1, 2, 0, 0, 0, 16, 1
L10B, 39.5859, 1.05316, 46.924, 1.04642,1, 2, 0, 0, 0, 16, 1
L11A, 46.924, 1.04642, 49.0179, 1.04447,1, 2, 0, 0, 0, 16, 1
L11B, 49.0179, 1.04447, 51.1119, 1.04447,1, 2, 0, 0, 0, 16, 1
L4A, 11.1374, 1.03889, 12.0219, 1.03879,2, 2, 0, 0, 0, 16, 1
L4B, 12.0219, 1.03879, 12.9065, 1.03879,2, 2, 0, 0, 0, 16, 1
