Name, Distance1, puV1, Distance2, puV2, Color, Thickness, Linetype, Markcenter, Centercode, NodeCode, NodeWidth,Title=L-N Voltage Profile, Distance in km
L1, 0, 1.04999, 0.786384, 1.04784,1, 2, 0, 0, 0, 16, 1
L1, 0, 1.05, 0.786384, 1.0487,2, 2, 0, 0, 0, 16, 1
L1, 0, 1.05, 0.786384, 1.04869,3, 2, 0, 0, 0, 16, 1
L2A, 0.786384, 1.04784, 1.05004, 1.04711,1, 2, 0, 0, 0, 16, 1
L2A, 0.786384, 1.0487, 1.05004, 1.04826,2, 2, 0, 0, 0, 16, 1
L2A, 0.786384, 1.04869, 1.05004, 1.04825,3, 2, 0, 0, 0, 16, 1
L2B, 1.05004, 1.04711, 1.31369, 1.04638,1, 2, 0, 0, 0, 16, 1
L2B, 1.05004, 1.04826, 1.31369, 1.04787,2, 2, 0, 0, 0, 16, 1
L2B, 1.05004, 1.04825, 1.31369, 1.04783,3, 2, 0, 0, 0, 16, 1
L3, 1.31369, 1.04638, 11.1374, 1.01915,1, 2, 0, 0, 0, 16, 1
L3, 1.31369, 1.04787, 11.1374, 1.03319,2, 2, 0, 0, 0, 16, 1
L3, 1.31369, 1.04783, 11.1374, 1.03232,3, 2, 0, 0, 0, 16, 1
L5, 11.1374, 1.01915, 22.5674, 0.987483,1, 2, 0, 0, 0, 16, 1
L5, 11.1374, 1.03319, 22.5674, 1.01711,2, 2, 0, 0, 0, 16, 1
L5, 11.1374, 1.03232, 22.5674, 1.01392,3, 2, 0, 0, 0, 16, 1
L6, 22.5674, 0.987483, 31.6291, 0.962335,1, 2, 0, 0, 0, 16, 1
L6, 22.5674, 1.01711, 31.6291, 1.00439,2, 2, 0, 0, 0, 16, 1
L6, 22.5674, 1.01392, 31.6291, 0.999253,3, 2, 0, 0, 0, 16, 1
L7, 31.6291, 1.0345, 31.6321, 1.03449,1, 2, 0, 0, 0, 16, 1
L7, 31.6291, 1.03578, 31.6321, 1.03577,2, 2, 0, 0, 0, 16, 1
L7, 31.6291, 1.03048, 31.6321, 1.03047,3, 2, 0, 0, 0, 16, 1
L24, 31.6321, 1.03449, 31.7266, 1.03415,1, 2, 0, 0, 0, 16, 1
L24, 31.6321, 1.03577, 31.7266, 1.03556,2, 2, 0, 0, 0, 16, 1
L24, 31.6321, 1.03047, 31.7266, 1.03025,3, 2, 0, 0, 0, 16, 1
L9A, 31.7266, 1.03415, 33.2826, 1.03026,1, 2, 0, 0, 0, 16, 1
L9A, 31.7266, 1.03556, 33.2826, 1.03155,2, 2, 0, 0, 0, 16, 1
L9A, 31.7266, 1.03025, 33.2826, 1.02665,3, 2, 0, 0, 0, 16, 1
L9B, 33.2826, 1.03026, 34.8386, 1.02637,1, 2, 0, 0, 0, 16, 1
L9B, 33.2826, 1.03155, 34.8386, 1.02756,2, 2, 0, 0, 0, 16, 1
L9B, 33.2826, 1.02665, 34.8386, 1.02307,3, 2, 0, 0, 0, 16, 1
L13A, 34.8386, 1.02637, 34.9667, 1.02605,1, 2, 0, 0, 0, 16, 1
L13A, 34.8386, 1.02756, 34.9667, 1.02727,2, 2, 0, 0, 0, 16, 1
L13A, 34.8386, 1.02307, 34.9667, 1.02276,3, 2, 0, 0, 0, 16, 1
L13B, 34.9667, 1.02605, 35.0947, 1.02573,1, 2, 0, 0, 0, 16, 1
L13B, 34.9667, 1.02727, 35.0947, 1.02698,2, 2, 0, 0, 0, 16, 1
L13B, 34.9667, 1.02276, 35.0947, 1.02246,3, 2, 0, 0, 0, 16, 1
L14A, 35.0947, 1.02573, 38.2097, 1.01796,1, 2, 0, 0, 0, 16, 1
L14A, 35.0947, 1.02698, 38.2097, 1.01986,2, 2, 0, 0, 0, 16, 1
L14A, 35.0947, 1.02246, 38.2097, 1.01519,3, 2, 0, 0, 0, 16, 1
L14B, 38.2097, 1.01796, 41.3248, 1.01033,1, 2, 0, 0, 0, 16, 1
L14B, 38.2097, 1.01986, 41.3248, 1.0127,2, 2, 0, 0, 0, 16, 1
L14B, 38.2097, 1.01519, 41.3248, 1.00792,3, 2, 0, 0, 0, 16, 1
L15, 41.3248, 1.01033, 41.4833, 1.00995,1, 2, 0, 0, 0, 16, 1
L15, 41.3248, 1.0127, 41.4833, 1.01235,2, 2, 0, 0, 0, 16, 1
L15, 41.3248, 1.00792, 41.4833, 1.00756,3, 2, 0, 0, 0, 16, 1
L27, 41.4833, 1.00995, 52.7091, 0.983529,1, 2, 0, 0, 0, 16, 1
L27, 41.4833, 1.01235, 52.7091, 0.987255,2, 2, 0, 0, 0, 16, 1
L27, 41.4833, 1.00756, 52.7091, 0.982342,3, 2, 0, 0, 0, 16, 1
L25, 52.7091, 1.06344, 52.7121, 1.06343,1, 2, 0, 0, 0, 16, 1
L25, 52.7091, 1.05513, 52.7121, 1.05512,2, 2, 0, 0, 0, 16, 1
L25, 52.7091, 1.05602, 52.7121, 1.05601,3, 2, 0, 0, 0, 16, 1
L32, 52.7121, 1.03152, 55.9308, 0.958545,1, 2, 0, 0, 0, 16, 1
L32, 52.7121, 1.02336, 55.9308, 0.957606,2, 2, 0, 0, 0, 16, 1
L32, 52.7121, 1.02439, 55.9308, 0.951986,3, 2, 0, 0, 0, 16, 1
L16A, 52.7121, 1.06343, 53.4589, 1.06244,1, 2, 0, 0, 0, 16, 1
L16A, 52.7121, 1.05512, 53.4589, 1.05415,2, 2, 0, 0, 0, 16, 1
L16A, 52.7121, 1.05601, 53.4589, 1.0551,3, 2, 0, 0, 0, 16, 1
L16B, 53.4589, 1.06244, 54.2056, 1.06148,1, 2, 0, 0, 0, 16, 1
L16B, 53.4589, 1.05415, 54.2056, 1.0532,2, 2, 0, 0, 0, 16, 1
L16B, 53.4589, 1.0551, 54.2056, 1.0542,3, 2, 0, 0, 0, 16, 1
L28A, 54.2056, 1.06148, 54.4525, 1.06147,1, 2, 0, 0, 0, 16, 1
L28B, 54.4525, 1.06147, 54.6994, 1.06147,1, 2, 0, 0, 0, 16, 1
L29A, 54.2056, 1.06148, 55.0941, 1.06034,1, 2, 0, 0, 0, 16, 1
L29A, 54.2056, 1.0532, 55.0941, 1.05206,2, 2, 0, 0, 0, 16, 1
L29A, 54.2056, 1.0542, 55.0941, 1.05313,3, 2, 0, 0, 0, 16, 1
L29B, 55.0941, 1.06034, 55.9826, 1.05924,1, 2, 0, 0, 0, 16, 1
L29B, 55.0941, 1.05206, 55.9826, 1.05097,2, 2, 0, 0, 0, 16, 1
L29B, 55.0941, 1.05313, 55.9826, 1.05212,3, 2, 0, 0, 0, 16, 1
L17A, 55.9826, 1.05924, 56.2905, 1.05899,1, 2, 0, 0, 0, 16, 1
L17A, 55.9826, 1.05097, 56.2905, 1.05077,2, 2, 0, 0, 0, 16, 1
L17A, 55.9826, 1.05212, 56.2905, 1.0519,3, 2, 0, 0, 0, 16, 1
L17B, 56.2905, 1.05899, 56.5983, 1.05886,1, 2, 0, 0, 0, 16, 1
L17B, 56.2905, 1.05077, 56.5983, 1.0506,2, 2, 0, 0, 0, 16, 1
L17B, 56.2905, 1.0519, 56.5983, 1.05179,3, 2, 0, 0, 0, 16, 1
L30A, 56.5983, 1.05886, 57.0067, 1.05873,1, 2, 0, 0, 0, 16, 1
L30A, 56.5983, 1.0506, 57.0067, 1.05042,2, 2, 0, 0, 0, 16, 1
L30A, 56.5983, 1.05179, 57.0067, 1.0517,3, 2, 0, 0, 0, 16, 1
L30B, 57.0067, 1.05873, 57.4152, 1.05868,1, 2, 0, 0, 0, 16, 1
L30B, 57.0067, 1.05042, 57.4152, 1.05028,2, 2, 0, 0, 0, 16, 1
L30B, 57.0067, 1.0517, 57.4152, 1.05167,3, 2, 0, 0, 0, 16, 1
L20, 57.4152, 1.05868, 57.5005, 1.05868,1, 2, 0, 0, 0, 16, 1
L20, 57.4152, 1.05028, 57.5005, 1.05026,2, 2, 0, 0, 0, 16, 1
L20, 57.4152, 1.05167, 57.5005, 1.05168,3, 2, 0, 0, 0, 16, 1
L31A, 57.5005, 1.05026, 58.2412, 1.05013,2, 2, 0, 0, 0, 16, 1
L31B, 58.2412, 1.05013, 58.9818, 1.05013,2, 2, 0, 0, 0, 16, 1
L19A, 57.4152, 1.05868, 57.5462, 1.05866,1, 2, 0, 0, 0, 16, 1
L19A, 57.4152, 1.05028, 57.5462, 1.05026,2, 2, 0, 0, 0, 16, 1
L19A, 57.4152, 1.05167, 57.5462, 1.05166,3, 2, 0, 0, 0, 16, 1
L19B, 57.5462, 1.05866, 57.6773, 1.05865,1, 2, 0, 0, 0, 16, 1
L19B, 57.5462, 1.05026, 57.6773, 1.05025,2, 2, 0, 0, 0, 16, 1
L19B, 57.5462, 1.05166, 57.6773, 1.05165,3, 2, 0, 0, 0, 16, 1
L18, 55.9826, 1.05924, 56.068, 1.0592,1, 2, 0, 0, 0, 16, 1
L18, 55.9826, 1.05097, 56.068, 1.05092,2, 2, 0, 0, 0, 16, 1
L18, 55.9826, 1.05212, 56.068, 1.05209,3, 2, 0, 0, 0, 16, 1
L21A, 56.068, 1.0592, 56.2737, 1.05912,1, 2, 0, 0, 0, 16, 1
L21A, 56.068, 1.05092, 56.2737, 1.0508,2, 2, 0, 0, 0, 16, 1
L21A, 56.068, 1.05209, 56.2737, 1.05201,3, 2, 0, 0, 0, 16, 1
L21B, 56.2737, 1.05912, 56.4794, 1.05904,1, 2, 0, 0, 0, 16, 1
L21B, 56.2737, 1.0508, 56.4794, 1.05067,2, 2, 0, 0, 0, 16, 1
L21B, 56.2737, 1.05201, 56.4794, 1.05192,3, 2, 0, 0, 0, 16, 1
L22A, 56.4794, 1.05904, 57.0342, 1.0592,1, 2, 0, 0, 0, 16, 1
L22A, 56.4794, 1.05067, 57.0342, 1.05065,2, 2, 0, 0, 0, 16, 1
L22A, 56.4794, 1.05192, 57.0342, 1.05205,3, 2, 0, 0, 0, 16, 1
L22B, 57.0342, 1.0592, 57.5889, 1.05934,1, 2, 0, 0, 0, 16, 1
L22B, 57.0342, 1.05065, 57.5889, 1.05073,2, 2, 0, 0, 0, 16, 1
L22B, 57.0342, 1.05205, 57.5889, 1.05223,3, 2, 0, 0, 0, 16, 1
L23A, 57.5889, 1.05934, 57.6697, 1.05936,1, 2, 0, 0, 0, 16, 1
L23A, 57.5889, 1.05073, 57.6697, 1.05074,2, 2, 0, 0, 0, 16, 1
L23A, 57.5889, 1.05223, 57.6697, 1.05226,3, 2, 0, 0, 0, 16, 1
L23B, 57.6697, 1.05936, 57.7505, 1.05938,1, 2, 0, 0, 0, 16, 1
L23B, 57.6697, 1.05074, 57.7505, 1.05076,2, 2, 0, 0, 0, 16, 1
L23B, 57.6697, 1.05226, 57.7505, 1.05228,3, 2, 0, 0, 0, 16, 1
L26A, 41.4833, 1.01235, 45.0388, 1.01226,2, 2, 0, 0, 0, 16, 1
L26B, 45.0388, 1.01226, 48.5943, 1.01228,2, 2, 0, 0, 0, 16, 1
L12A, 34.8386, 1.02756, 35.3004, 1.02739,2, 2, 0, 0, 0, 16, 1
L12B, 35.3004, 1.02739, 35.7622, 1.02739,2, 2, 0, 0, 0, 16, 1
L8, 31.7266, 1.03415, 32.2478, 1.03335,1, 2, 0, 0, 0, 16, 1
L10A, 32.2478, 1.03335, 39.5859, 1.02197,1, 2, 0, 0, 0, 16, 1
L10B, 39.5859, 1.02197, 46.924, 1.01285,1, 2, 0, 0, 0, 16, 1
L11A, 46.924, 1.01285, 49.0179, 1.01022,1, 2, 0, 0, 0, 16, 1
L11B, 49.0179, 1.01022, 51.1119, 1.01023,1, 2, 0, 0, 0, 16, 1
L4A, 11.1374, 1.03319, 12.0219, 1.03307,2, 2, 0, 0, 0, 16, 1
L4B, 12.0219, 1.03307, 12.9065, 1.03307,2, 2, 0, 0, 0, 16, 1
