Name, Distance1, puV1, Distance2, puV2, Color, Thickness, Linetype, Markcenter, Centercode, NodeCode, NodeWidth,Title=L-N Voltage Profile, Distance in km
L1, 0, 1.04999, 0.786384, 1.04745,1, 2, 0, 0, 0, 16, 1
L1, 0, 1.04999, 0.786384, 1.04843,2, 2, 0, 0, 0, 16, 1
L1, 0, 1.05, 0.786384, 1.04843,3, 2, 0, 0, 0, 16, 1
L2A, 0.786384, 1.04745, 1.05004, 1.0466,1, 2, 0, 0, 0, 16, 1
L2A, 0.786384, 1.04843, 1.05004, 1.0479,2, 2, 0, 0, 0, 16, 1
L2A, 0.786384, 1.04843, 1.05004, 1.04791,3, 2, 0, 0, 0, 16, 1
L2B, 1.05004, 1.0466, 1.31369, 1.04574,1, 2, 0, 0, 0, 16, 1
L2B, 1.05004, 1.0479, 1.31369, 1.04742,2, 2, 0, 0, 0, 16, 1
L2B, 1.05004, 1.04791, 1.31369, 1.04741,3, 2, 0, 0, 0, 16, 1
L3, 1.31369, 1.04574, 11.1374, 1.01368,1, 2, 0, 0, 0, 16, 1
L3, 1.31369, 1.04742, 11.1374, 1.02963,2, 2, 0, 0, 0, 16, 1
L3, 1.31369, 1.04741, 11.1374, 1.02887,3, 2, 0, 0, 0, 16, 1
L5, 11.1374, 1.01368, 22.5674, 0.976397,1, 2, 0, 0, 0, 16, 1
L5, 11.1374, 1.02963, 22.5674, 1.01005,2, 2, 0, 0, 0, 16, 1
L5, 11.1374, 1.02887, 22.5674, 1.00689,3, 2, 0, 0, 0, 16, 1
L6, 22.5674, 0.976397, 31.6291, 0.946792,1, 2, 0, 0, 0, 16, 1
L6, 22.5674, 1.01005, 31.6291, 0.99459,2, 2, 0, 0, 0, 16, 1
L6, 22.5674, 1.00689, 31.6291, 0.98939,3, 2, 0, 0, 0, 16, 1
L7, 31.6291, 1.01779, 31.6321, 1.01778,1, 2, 0, 0, 0, 16, 1
L7, 31.6291, 1.02567, 31.6321, 1.02566,2, 2, 0, 0, 0, 16, 1
L7, 31.6291, 1.02031, 31.6321, 1.0203,3, 2, 0, 0, 0, 16, 1
L24, 31.6321, 1.01778, 31.7266, 1.01738,1, 2, 0, 0, 0, 16, 1
L24, 31.6321, 1.02566, 31.7266, 1.02541,2, 2, 0, 0, 0, 16, 1
L24, 31.6321, 1.0203, 31.7266, 1.02003,3, 2, 0, 0, 0, 16, 1
L9A, 31.7266, 1.01738, 33.2826, 1.01285,1, 2, 0, 0, 0, 16, 1
L9A, 31.7266, 1.02541, 33.2826, 1.02068,2, 2, 0, 0, 0, 16, 1
L9A, 31.7266, 1.02003, 33.2826, 1.01581,3, 2, 0, 0, 0, 16, 1
L9B, 33.2826, 1.01285, 34.8386, 1.00831,1, 2, 0, 0, 0, 16, 1
L9B, 33.2826, 1.02068, 34.8386, 1.01598,2, 2, 0, 0, 0, 16, 1
L9B, 33.2826, 1.01581, 34.8386, 1.01161,3, 2, 0, 0, 0, 16, 1
L13A, 34.8386, 1.00831, 34.9667, 1.00794,1, 2, 0, 0, 0, 16, 1
L13A, 34.8386, 1.01598, 34.9667, 1.01564,2, 2, 0, 0, 0, 16, 1
L13A, 34.8386, 1.01161, 34.9667, 1.01126,3, 2, 0, 0, 0, 16, 1
L13B, 34.9667, 1.00794, 35.0947, 1.00757,1, 2, 0, 0, 0, 16, 1
L13B, 34.9667, 1.01564, 35.0947, 1.01529,2, 2, 0, 0, 0, 16, 1
L13B, 34.9667, 1.01126, 35.0947, 1.01091,3, 2, 0, 0, 0, 16, 1
L14A, 35.0947, 1.00757, 38.2097, 0.998514,1, 2, 0, 0, 0, 16, 1
L14A, 35.0947, 1.01529, 38.2097, 1.00686,2, 2, 0, 0, 0, 16, 1
L14A, 35.0947, 1.01091, 38.2097, 1.00238,3, 2, 0, 0, 0, 16, 1
L14B, 38.2097, 0.998514, 41.3248, 0.989611,1, 2, 0, 0, 0, 16, 1
L14B, 38.2097, 1.00686, 41.3248, 0.998383,2, 2, 0, 0, 0, 16, 1
L14B, 38.2097, 1.00238, 41.3248, 0.993856,3, 2, 0, 0, 0, 16, 1
L15, 41.3248, 0.989611, 41.4833, 0.989175,1, 2, 0, 0, 0, 16, 1
L15, 41.3248, 0.998383, 41.4833, 0.997961,2, 2, 0, 0, 0, 16, 1
L15, 41.3248, 0.993856, 41.4833, 0.993439,3, 2, 0, 0, 0, 16, 1
L27, 41.4833, 0.989175, 52.7091, 0.958306,1, 2, 0, 0, 0, 16, 1
L27, 41.4833, 0.997961, 52.7091, 0.968228,2, 2, 0, 0, 0, 16, 1
L27, 41.4833, 0.993439, 52.7091, 0.963815,3, 2, 0, 0, 0, 16, 1
L25, 52.7091, 1.03616, 52.7121, 1.03616,1, 2, 0, 0, 0, 16, 1
L25, 52.7091, 1.03479, 52.7121, 1.03478,2, 2, 0, 0, 0, 16, 1
L25, 52.7091, 1.0361, 52.7121, 1.03609,3, 2, 0, 0, 0, 16, 1
L32, 52.7121, 0.999811, 55.9308, 0.917005,1, 2, 0, 0, 0, 16, 1
L32, 52.7121, 0.998652, 55.9308, 0.923949,2, 2, 0, 0, 0, 16, 1
L32, 52.7121, 1.00006, 55.9308, 0.917855,3, 2, 0, 0, 0, 16, 1
L16A, 52.7121, 1.03616, 53.4589, 1.03498,1, 2, 0, 0, 0, 16, 1
L16A, 52.7121, 1.03478, 53.4589, 1.0336,2, 2, 0, 0, 0, 16, 1
L16A, 52.7121, 1.03609, 53.4589, 1.03499,3, 2, 0, 0, 0, 16, 1
L16B, 53.4589, 1.03498, 54.2056, 1.03383,1, 2, 0, 0, 0, 16, 1
L16B, 53.4589, 1.0336, 54.2056, 1.03245,2, 2, 0, 0, 0, 16, 1
L16B, 53.4589, 1.03499, 54.2056, 1.0339,3, 2, 0, 0, 0, 16, 1
L28A, 54.2056, 1.03383, 54.4525, 1.03382,1, 2, 0, 0, 0, 16, 1
L28B, 54.4525, 1.03382, 54.6994, 1.03382,1, 2, 0, 0, 0, 16, 1
L29A, 54.2056, 1.03383, 55.0941, 1.03247,1, 2, 0, 0, 0, 16, 1
L29A, 54.2056, 1.03245, 55.0941, 1.03106,2, 2, 0, 0, 0, 16, 1
L29A, 54.2056, 1.0339, 55.0941, 1.03261,3, 2, 0, 0, 0, 16, 1
L29B, 55.0941, 1.03247, 55.9826, 1.03116,1, 2, 0, 0, 0, 16, 1
L29B, 55.0941, 1.03106, 55.9826, 1.02973,2, 2, 0, 0, 0, 16, 1
L29B, 55.0941, 1.03261, 55.9826, 1.0314,3, 2, 0, 0, 0, 16, 1
L17A, 55.9826, 1.03116, 56.2905, 1.03088,1, 2, 0, 0, 0, 16, 1
L17A, 55.9826, 1.02973, 56.2905, 1.0295,2, 2, 0, 0, 0, 16, 1
L17A, 55.9826, 1.0314, 56.2905, 1.03115,3, 2, 0, 0, 0, 16, 1
L17B, 56.2905, 1.03088, 56.5983, 1.03073,1, 2, 0, 0, 0, 16, 1
L17B, 56.2905, 1.0295, 56.5983, 1.02931,2, 2, 0, 0, 0, 16, 1
L17B, 56.2905, 1.03115, 56.5983, 1.03103,3, 2, 0, 0, 0, 16, 1
L30A, 56.5983, 1.03073, 57.0067, 1.03058,1, 2, 0, 0, 0, 16, 1
L30A, 56.5983, 1.02931, 57.0067, 1.0291,2, 2, 0, 0, 0, 16, 1
L30A, 56.5983, 1.03103, 57.0067, 1.03093,3, 2, 0, 0, 0, 16, 1
L30B, 57.0067, 1.03058, 57.4152, 1.03052,1, 2, 0, 0, 0, 16, 1
L30B, 57.0067, 1.0291, 57.4152, 1.02894,2, 2, 0, 0, 0, 16, 1
L30B, 57.0067, 1.03093, 57.4152, 1.03089,3, 2, 0, 0, 0, 16, 1
L20, 57.4152, 1.03052, 57.5005, 1.03052,1, 2, 0, 0, 0, 16, 1
L20, 57.4152, 1.02894, 57.5005, 1.02892,2, 2, 0, 0, 0, 16, 1
L20, 57.4152, 1.03089, 57.5005, 1.0309,3, 2, 0, 0, 0, 16, 1
L31A, 57.5005, 1.02892, 58.2412, 1.02876,2, 2, 0, 0, 0, 16, 1
L31B, 58.2412, 1.02876, 58.9818, 1.02876,2, 2, 0, 0, 0, 16, 1
L19A, 57.4152, 1.03052, 57.5462, 1.03051,1, 2, 0, 0, 0, 16, 1
L19A, 57.4152, 1.02894, 57.5462, 1.02891,2, 2, 0, 0, 0, 16, 1
L19A, 57.4152, 1.03089, 57.5462, 1.03087,3, 2, 0, 0, 0, 16, 1
L19B, 57.5462, 1.03051, 57.6773, 1.0305,1, 2, 0, 0, 0, 16, 1
L19B, 57.5462, 1.02891, 57.6773, 1.02891,2, 2, 0, 0, 0, 16, 1
L19B, 57.5462, 1.03087, 57.6773, 1.03086,3, 2, 0, 0, 0, 16, 1
L18, 55.9826, 1.03116, 56.068, 1.03111,1, 2, 0, 0, 0, 16, 1
L18, 55.9826, 1.02973, 56.068, 1.02966,2, 2, 0, 0, 0, 16, 1
L18, 55.9826, 1.0314, 56.068, 1.03136,3, 2, 0, 0, 0, 16, 1
L21A, 56.068, 1.03111, 56.2737, 1.031,1, 2, 0, 0, 0, 16, 1
L21A, 56.068, 1.02966, 56.2737, 1.02951,2, 2, 0, 0, 0, 16, 1
L21A, 56.068, 1.03136, 56.2737, 1.03124,3, 2, 0, 0, 0, 16, 1
L21B, 56.2737, 1.031, 56.4794, 1.0309,1, 2, 0, 0, 0, 16, 1
L21B, 56.2737, 1.02951, 56.4794, 1.02934,2, 2, 0, 0, 0, 16, 1
L21B, 56.2737, 1.03124, 56.4794, 1.03113,3, 2, 0, 0, 0, 16, 1
L22A, 56.4794, 1.0309, 57.0342, 1.03104,1, 2, 0, 0, 0, 16, 1
L22A, 56.4794, 1.02934, 57.0342, 1.02928,2, 2, 0, 0, 0, 16, 1
L22A, 56.4794, 1.03113, 57.0342, 1.03124,3, 2, 0, 0, 0, 16, 1
L22B, 57.0342, 1.03104, 57.5889, 1.03116,1, 2, 0, 0, 0, 16, 1
L22B, 57.0342, 1.02928, 57.5889, 1.02933,2, 2, 0, 0, 0, 16, 1
L22B, 57.0342, 1.03124, 57.5889, 1.03141,3, 2, 0, 0, 0, 16, 1
L23A, 57.5889, 1.03116, 57.6697, 1.03118,1, 2, 0, 0, 0, 16, 1
L23A, 57.5889, 1.02933, 57.6697, 1.02933,2, 2, 0, 0, 0, 16, 1
L23A, 57.5889, 1.03141, 57.6697, 1.03144,3, 2, 0, 0, 0, 16, 1
L23B, 57.6697, 1.03118, 57.7505, 1.0312,1, 2, 0, 0, 0, 16, 1
L23B, 57.6697, 1.02933, 57.7505, 1.02935,2, 2, 0, 0, 0, 16, 1
L23B, 57.6697, 1.03144, 57.7505, 1.03146,3, 2, 0, 0, 0, 16, 1
L26A, 41.4833, 0.997961, 45.0388, 0.997855,2, 2, 0, 0, 0, 16, 1
L26B, 45.0388, 0.997855, 48.5943, 0.997871,2, 2, 0, 0, 0, 16, 1
L12A, 34.8386, 1.01598, 35.3004, 1.01579,2, 2, 0, 0, 0, 16, 1
L12B, 35.3004, 1.01579, 35.7622, 1.01579,2, 2, 0, 0, 0, 16, 1
L8, 31.7266, 1.01738, 32.2478, 1.01645,1, 2, 0, 0, 0, 16, 1
L10A, 32.2478, 1.01645, 39.5859, 1.00333,1, 2, 0, 0, 0, 16, 1
L10B, 39.5859, 1.00333, 46.924, 0.992733,1, 2, 0, 0, 0, 16, 1
L11A, 46.924, 0.992733, 49.0179, 0.989686,1, 2, 0, 0, 0, 16, 1
L11B, 49.0179, 0.989686, 51.1119, 0.989692,1, 2, 0, 0, 0, 16, 1
L4A, 11.1374, 1.02963, 12.0219, 1.02948,2, 2, 0, 0, 0, 16, 1
L4B, 12.0219, 1.02948, 12.9065, 1.02948,2, 2, 0, 0, 0, 16, 1
