Name, Distance1, puV1, Distance2, puV2, Color, Thickness, Linetype, Markcenter, Centercode, NodeCode, NodeWidth,Title=L-N Voltage Profile, Distance in km
L1, 0, 1.05, 0.786384, 1.04855,1, 2, 0, 0, 0, 16, 1
L1, 0, 1.05, 0.786384, 1.04917,2, 2, 0, 0, 0, 16, 1
L1, 0, 1.05, 0.786384, 1.04915,3, 2, 0, 0, 0, 16, 1
L2A, 0.786384, 1.04855, 1.05004, 1.04806,1, 2, 0, 0, 0, 16, 1
L2A, 0.786384, 1.04917, 1.05004, 1.04889,2, 2, 0, 0, 0, 16, 1
L2A, 0.786384, 1.04915, 1.05004, 1.04887,3, 2, 0, 0, 0, 16, 1
L2B, 1.05004, 1.04806, 1.31369, 1.04757,1, 2, 0, 0, 0, 16, 1
L2B, 1.05004, 1.04889, 1.31369, 1.04865,2, 2, 0, 0, 0, 16, 1
L2B, 1.05004, 1.04887, 1.31369, 1.0486,3, 2, 0, 0, 0, 16, 1
L3, 1.31369, 1.04757, 11.1374, 1.02924,1, 2, 0, 0, 0, 16, 1
L3, 1.31369, 1.04865, 11.1374, 1.03946,2, 2, 0, 0, 0, 16, 1
L3, 1.31369, 1.0486, 11.1374, 1.03864,3, 2, 0, 0, 0, 16, 1
L5, 11.1374, 1.02924, 22.5674, 1.00793,1, 2, 0, 0, 0, 16, 1
L5, 11.1374, 1.03946, 22.5674, 1.02948,2, 2, 0, 0, 0, 16, 1
L5, 11.1374, 1.03864, 22.5674, 1.02677,3, 2, 0, 0, 0, 16, 1
L6, 22.5674, 1.00793, 31.6291, 0.991005,1, 2, 0, 0, 0, 16, 1
L6, 22.5674, 1.02948, 31.6291, 1.02158,2, 2, 0, 0, 0, 16, 1
L6, 22.5674, 1.02677, 31.6291, 1.01729,3, 2, 0, 0, 0, 16, 1
L7, 31.6291, 1.06533, 31.6321, 1.06532,1, 2, 0, 0, 0, 16, 1
L7, 31.6291, 1.05351, 31.6321, 1.05351,2, 2, 0, 0, 0, 16, 1
L7, 31.6291, 1.04909, 31.6321, 1.04908,3, 2, 0, 0, 0, 16, 1
L24, 31.6321, 1.06532, 31.7266, 1.06508,1, 2, 0, 0, 0, 16, 1
L24, 31.6321, 1.05351, 31.7266, 1.05336,2, 2, 0, 0, 0, 16, 1
L24, 31.6321, 1.04908, 31.7266, 1.04893,3, 2, 0, 0, 0, 16, 1
L9A, 31.7266, 1.06508, 33.2826, 1.06239,1, 2, 0, 0, 0, 16, 1
L9A, 31.7266, 1.05336, 33.2826, 1.05062,2, 2, 0, 0, 0, 16, 1
L9A, 31.7266, 1.04893, 33.2826, 1.04646,3, 2, 0, 0, 0, 16, 1
L9B, 33.2826, 1.06239, 34.8386, 1.0597,1, 2, 0, 0, 0, 16, 1
L9B, 33.2826, 1.05062, 34.8386, 1.04789,2, 2, 0, 0, 0, 16, 1
L9B, 33.2826, 1.04646, 34.8386, 1.04401,3, 2, 0, 0, 0, 16, 1
L13A, 34.8386, 1.0597, 34.9667, 1.05948,1, 2, 0, 0, 0, 16, 1
L13A, 34.8386, 1.04789, 34.9667, 1.04769,2, 2, 0, 0, 0, 16, 1
L13A, 34.8386, 1.04401, 34.9667, 1.04381,3, 2, 0, 0, 0, 16, 1
L13B, 34.9667, 1.05948, 35.0947, 1.05926,1, 2, 0, 0, 0, 16, 1
L13B, 34.9667, 1.04769, 35.0947, 1.04749,2, 2, 0, 0, 0, 16, 1
L13B, 34.9667, 1.04381, 35.0947, 1.0436,3, 2, 0, 0, 0, 16, 1
L14A, 35.0947, 1.05926, 38.2097, 1.05389,1, 2, 0, 0, 0, 16, 1
L14A, 35.0947, 1.04749, 38.2097, 1.04267,2, 2, 0, 0, 0, 16, 1
L14A, 35.0947, 1.0436, 38.2097, 1.03862,3, 2, 0, 0, 0, 16, 1
L14B, 38.2097, 1.05389, 41.3248, 1.04861,1, 2, 0, 0, 0, 16, 1
L14B, 38.2097, 1.04267, 41.3248, 1.03782,2, 2, 0, 0, 0, 16, 1
L14B, 38.2097, 1.03862, 41.3248, 1.03364,3, 2, 0, 0, 0, 16, 1
L15, 41.3248, 1.04861, 41.4833, 1.04836,1, 2, 0, 0, 0, 16, 1
L15, 41.3248, 1.03782, 41.4833, 1.03758,2, 2, 0, 0, 0, 16, 1
L15, 41.3248, 1.03364, 41.4833, 1.0334,3, 2, 0, 0, 0, 16, 1
L27, 41.4833, 1.04836, 52.7091, 1.03021,1, 2, 0, 0, 0, 16, 1
L27, 41.4833, 1.03758, 52.7091, 1.02061,2, 2, 0, 0, 0, 16, 1
L27, 41.4833, 1.0334, 52.7091, 1.01624,3, 2, 0, 0, 0, 16, 1
L25, 52.7091, 1.11392, 52.7121, 1.11391,1, 2, 0, 0, 0, 16, 1
L25, 52.7091, 1.09078, 52.7121, 1.09077,2, 2, 0, 0, 0, 16, 1
L25, 52.7091, 1.09246, 52.7121, 1.09246,3, 2, 0, 0, 0, 16, 1
L32, 52.7121, 1.09022, 55.9308, 1.03569,1, 2, 0, 0, 0, 16, 1
L32, 52.7121, 1.06715, 55.9308, 1.01815,2, 2, 0, 0, 0, 16, 1
L32, 52.7121, 1.069, 55.9308, 1.01497,3, 2, 0, 0, 0, 16, 1
L16A, 52.7121, 1.11391, 53.4589, 1.11327,1, 2, 0, 0, 0, 16, 1
L16A, 52.7121, 1.09077, 53.4589, 1.09016,2, 2, 0, 0, 0, 16, 1
L16A, 52.7121, 1.09246, 53.4589, 1.09187,3, 2, 0, 0, 0, 16, 1
L16B, 53.4589, 1.11327, 54.2056, 1.11265,1, 2, 0, 0, 0, 16, 1
L16B, 53.4589, 1.09016, 54.2056, 1.08956,2, 2, 0, 0, 0, 16, 1
L16B, 53.4589, 1.09187, 54.2056, 1.09131,3, 2, 0, 0, 0, 16, 1
L28A, 54.2056, 1.11265, 54.4525, 1.11264,1, 2, 0, 0, 0, 16, 1
L28B, 54.4525, 1.11264, 54.6994, 1.11264,1, 2, 0, 0, 0, 16, 1
L29A, 54.2056, 1.11265, 55.0941, 1.11191,1, 2, 0, 0, 0, 16, 1
L29A, 54.2056, 1.08956, 55.0941, 1.08884,2, 2, 0, 0, 0, 16, 1
L29A, 54.2056, 1.09131, 55.0941, 1.09063,3, 2, 0, 0, 0, 16, 1
L29B, 55.0941, 1.11191, 55.9826, 1.11121,1, 2, 0, 0, 0, 16, 1
L29B, 55.0941, 1.08884, 55.9826, 1.08816,2, 2, 0, 0, 0, 16, 1
L29B, 55.0941, 1.09063, 55.9826, 1.09001,3, 2, 0, 0, 0, 16, 1
L17A, 55.9826, 1.11121, 56.2905, 1.11102,1, 2, 0, 0, 0, 16, 1
L17A, 55.9826, 1.08816, 56.2905, 1.088,2, 2, 0, 0, 0, 16, 1
L17A, 55.9826, 1.09001, 56.2905, 1.08984,3, 2, 0, 0, 0, 16, 1
L17B, 56.2905, 1.11102, 56.5983, 1.11091,1, 2, 0, 0, 0, 16, 1
L17B, 56.2905, 1.088, 56.5983, 1.08787,2, 2, 0, 0, 0, 16, 1
L17B, 56.2905, 1.08984, 56.5983, 1.08976,3, 2, 0, 0, 0, 16, 1
L30A, 56.5983, 1.11091, 57.0067, 1.11081,1, 2, 0, 0, 0, 16, 1
L30A, 56.5983, 1.08787, 57.0067, 1.08773,2, 2, 0, 0, 0, 16, 1
L30A, 56.5983, 1.08976, 57.0067, 1.08969,3, 2, 0, 0, 0, 16, 1
L30B, 57.0067, 1.11081, 57.4152, 1.11077,1, 2, 0, 0, 0, 16, 1
L30B, 57.0067, 1.08773, 57.4152, 1.08762,2, 2, 0, 0, 0, 16, 1
L30B, 57.0067, 1.08969, 57.4152, 1.08966,3, 2, 0, 0, 0, 16, 1
L20, 57.4152, 1.11077, 57.5005, 1.11077,1, 2, 0, 0, 0, 16, 1
L20, 57.4152, 1.08762, 57.5005, 1.08761,2, 2, 0, 0, 0, 16, 1
L20, 57.4152, 1.08966, 57.5005, 1.08967,3, 2, 0, 0, 0, 16, 1
L31A, 57.5005, 1.08761, 58.2412, 1.08751,2, 2, 0, 0, 0, 16, 1
L31B, 58.2412, 1.08751, 58.9818, 1.08751,2, 2, 0, 0, 0, 16, 1
L19A, 57.4152, 1.11077, 57.5462, 1.11076,1, 2, 0, 0, 0, 16, 1
L19A, 57.4152, 1.08762, 57.5462, 1.08761,2, 2, 0, 0, 0, 16, 1
L19A, 57.4152, 1.08966, 57.5462, 1.08965,3, 2, 0, 0, 0, 16, 1
L19B, 57.5462, 1.11076, 57.6773, 1.11075,1, 2, 0, 0, 0, 16, 1
L19B, 57.5462, 1.08761, 57.6773, 1.0876,2, 2, 0, 0, 0, 16, 1
L19B, 57.5462, 1.08965, 57.6773, 1.08964,3, 2, 0, 0, 0, 16, 1
L18, 55.9826, 1.11121, 56.068, 1.1112,1, 2, 0, 0, 0, 16, 1
L18, 55.9826, 1.08816, 56.068, 1.08813,2, 2, 0, 0, 0, 16, 1
L18, 55.9826, 1.09001, 56.068, 1.09,3, 2, 0, 0, 0, 16, 1
L21A, 56.068, 1.1112, 56.2737, 1.11117,1, 2, 0, 0, 0, 16, 1
L21A, 56.068, 1.08813, 56.2737, 1.08807,2, 2, 0, 0, 0, 16, 1
L21A, 56.068, 1.09, 56.2737, 1.08997,3, 2, 0, 0, 0, 16, 1
L21B, 56.2737, 1.11117, 56.4794, 1.11114,1, 2, 0, 0, 0, 16, 1
L21B, 56.2737, 1.08807, 56.4794, 1.08801,2, 2, 0, 0, 0, 16, 1
L21B, 56.2737, 1.08997, 56.4794, 1.08994,3, 2, 0, 0, 0, 16, 1
L22A, 56.4794, 1.11114, 57.0342, 1.11132,1, 2, 0, 0, 0, 16, 1
L22A, 56.4794, 1.08801, 57.0342, 1.08806,2, 2, 0, 0, 0, 16, 1
L22A, 56.4794, 1.08994, 57.0342, 1.0901,3, 2, 0, 0, 0, 16, 1
L22B, 57.0342, 1.11132, 57.5889, 1.1115,1, 2, 0, 0, 0, 16, 1
L22B, 57.0342, 1.08806, 57.5889, 1.08817,2, 2, 0, 0, 0, 16, 1
L22B, 57.0342, 1.0901, 57.5889, 1.0903,3, 2, 0, 0, 0, 16, 1
L23A, 57.5889, 1.1115, 57.6697, 1.11152,1, 2, 0, 0, 0, 16, 1
L23A, 57.5889, 1.08817, 57.6697, 1.08819,2, 2, 0, 0, 0, 16, 1
L23A, 57.5889, 1.0903, 57.6697, 1.09032,3, 2, 0, 0, 0, 16, 1
L23B, 57.6697, 1.11152, 57.7505, 1.11155,1, 2, 0, 0, 0, 16, 1
L23B, 57.6697, 1.08819, 57.7505, 1.08822,2, 2, 0, 0, 0, 16, 1
L23B, 57.6697, 1.09032, 57.7505, 1.09035,3, 2, 0, 0, 0, 16, 1
L26A, 41.4833, 1.03758, 45.0388, 1.03753,2, 2, 0, 0, 0, 16, 1
L26B, 45.0388, 1.03753, 48.5943, 1.03755,2, 2, 0, 0, 0, 16, 1
L12A, 34.8386, 1.04789, 35.3004, 1.04776,2, 2, 0, 0, 0, 16, 1
L12B, 35.3004, 1.04776, 35.7622, 1.04776,2, 2, 0, 0, 0, 16, 1
L8, 31.7266, 1.06508, 32.2478, 1.0645,1, 2, 0, 0, 0, 16, 1
L10A, 32.2478, 1.0645, 39.5859, 1.05628,1, 2, 0, 0, 0, 16, 1
L10B, 39.5859, 1.05628, 46.924, 1.04976,1, 2, 0, 0, 0, 16, 1
L11A, 46.924, 1.04976, 49.0179, 1.04787,1, 2, 0, 0, 0, 16, 1
L11B, 49.0179, 1.04787, 51.1119, 1.04788,1, 2, 0, 0, 0, 16, 1
L4A, 11.1374, 1.03946, 12.0219, 1.03937,2, 2, 0, 0, 0, 16, 1
L4B, 12.0219, 1.03937, 12.9065, 1.03937,2, 2, 0, 0, 0, 16, 1
