Name, Distance1, puV1, Distance2, puV2, Color, Thickness, Linetype, Markcenter, Centercode, NodeCode, NodeWidth,Title=L-N Voltage Profile, Distance in km
L1, 0, 1.05, 0.786384, 1.04826,1, 2, 0, 0, 0, 16, 1
L1, 0, 1.05, 0.786384, 1.04897,2, 2, 0, 0, 0, 16, 1
L1, 0, 1.05, 0.786384, 1.04896,3, 2, 0, 0, 0, 16, 1
L2A, 0.786384, 1.04826, 1.05004, 1.04767,1, 2, 0, 0, 0, 16, 1
L2A, 0.786384, 1.04897, 1.05004, 1.04863,2, 2, 0, 0, 0, 16, 1
L2A, 0.786384, 1.04896, 1.05004, 1.04861,3, 2, 0, 0, 0, 16, 1
L2B, 1.05004, 1.04767, 1.31369, 1.04708,1, 2, 0, 0, 0, 16, 1
L2B, 1.05004, 1.04863, 1.31369, 1.04832,2, 2, 0, 0, 0, 16, 1
L2B, 1.05004, 1.04861, 1.31369, 1.04828,3, 2, 0, 0, 0, 16, 1
L3, 1.31369, 1.04708, 11.1374, 1.0251,1, 2, 0, 0, 0, 16, 1
L3, 1.31369, 1.04832, 11.1374, 1.03687,2, 2, 0, 0, 0, 16, 1
L3, 1.31369, 1.04828, 11.1374, 1.03603,3, 2, 0, 0, 0, 16, 1
L5, 11.1374, 1.0251, 22.5674, 0.999533,1, 2, 0, 0, 0, 16, 1
L5, 11.1374, 1.03687, 22.5674, 1.02437,2, 2, 0, 0, 0, 16, 1
L5, 11.1374, 1.03603, 22.5674, 1.02147,3, 2, 0, 0, 0, 16, 1
L6, 22.5674, 0.999533, 31.6291, 0.979227,1, 2, 0, 0, 0, 16, 1
L6, 22.5674, 1.02437, 31.6291, 1.01448,2, 2, 0, 0, 0, 16, 1
L6, 22.5674, 1.02147, 31.6291, 1.00985,3, 2, 0, 0, 0, 16, 1
L7, 31.6291, 1.05267, 31.6321, 1.05266,1, 2, 0, 0, 0, 16, 1
L7, 31.6291, 1.04618, 31.6321, 1.04618,2, 2, 0, 0, 0, 16, 1
L7, 31.6291, 1.04141, 31.6321, 1.0414,3, 2, 0, 0, 0, 16, 1
L24, 31.6321, 1.05266, 31.7266, 1.05238,1, 2, 0, 0, 0, 16, 1
L24, 31.6321, 1.04618, 31.7266, 1.04601,2, 2, 0, 0, 0, 16, 1
L24, 31.6321, 1.0414, 31.7266, 1.04122,3, 2, 0, 0, 0, 16, 1
L9A, 31.7266, 1.05238, 33.2826, 1.04919,1, 2, 0, 0, 0, 16, 1
L9A, 31.7266, 1.04601, 33.2826, 1.04274,2, 2, 0, 0, 0, 16, 1
L9A, 31.7266, 1.04122, 33.2826, 1.03829,3, 2, 0, 0, 0, 16, 1
L9B, 33.2826, 1.04919, 34.8386, 1.046,1, 2, 0, 0, 0, 16, 1
L9B, 33.2826, 1.04274, 34.8386, 1.03949,2, 2, 0, 0, 0, 16, 1
L9B, 33.2826, 1.03829, 34.8386, 1.03537,3, 2, 0, 0, 0, 16, 1
L13A, 34.8386, 1.046, 34.9667, 1.04574,1, 2, 0, 0, 0, 16, 1
L13A, 34.8386, 1.03949, 34.9667, 1.03926,2, 2, 0, 0, 0, 16, 1
L13A, 34.8386, 1.03537, 34.9667, 1.03512,3, 2, 0, 0, 0, 16, 1
L13B, 34.9667, 1.04574, 35.0947, 1.04547,1, 2, 0, 0, 0, 16, 1
L13B, 34.9667, 1.03926, 35.0947, 1.03902,2, 2, 0, 0, 0, 16, 1
L13B, 34.9667, 1.03512, 35.0947, 1.03488,3, 2, 0, 0, 0, 16, 1
L14A, 35.0947, 1.04547, 38.2097, 1.03911,1, 2, 0, 0, 0, 16, 1
L14A, 35.0947, 1.03902, 38.2097, 1.03325,2, 2, 0, 0, 0, 16, 1
L14A, 35.0947, 1.03488, 38.2097, 1.02895,3, 2, 0, 0, 0, 16, 1
L14B, 38.2097, 1.03911, 41.3248, 1.03285,1, 2, 0, 0, 0, 16, 1
L14B, 38.2097, 1.03325, 41.3248, 1.02745,2, 2, 0, 0, 0, 16, 1
L14B, 38.2097, 1.02895, 41.3248, 1.02303,3, 2, 0, 0, 0, 16, 1
L15, 41.3248, 1.03285, 41.4833, 1.03255,1, 2, 0, 0, 0, 16, 1
L15, 41.3248, 1.02745, 41.4833, 1.02716,2, 2, 0, 0, 0, 16, 1
L15, 41.3248, 1.02303, 41.4833, 1.02274,3, 2, 0, 0, 0, 16, 1
L27, 41.4833, 1.03255, 52.7091, 1.01096,1, 2, 0, 0, 0, 16, 1
L27, 41.4833, 1.02716, 52.7091, 1.00684,2, 2, 0, 0, 0, 16, 1
L27, 41.4833, 1.02274, 52.7091, 1.00225,3, 2, 0, 0, 0, 16, 1
L25, 52.7091, 1.09311, 52.7121, 1.0931,1, 2, 0, 0, 0, 16, 1
L25, 52.7091, 1.07607, 52.7121, 1.07606,2, 2, 0, 0, 0, 16, 1
L25, 52.7091, 1.07742, 52.7121, 1.07741,3, 2, 0, 0, 0, 16, 1
L32, 52.7121, 1.06607, 55.9308, 1.00404,1, 2, 0, 0, 0, 16, 1
L32, 52.7121, 1.04914, 55.9308, 0.993326,2, 2, 0, 0, 0, 16, 1
L32, 52.7121, 1.05065, 55.9308, 0.989152,3, 2, 0, 0, 0, 16, 1
L16A, 52.7121, 1.0931, 53.4589, 1.09231,1, 2, 0, 0, 0, 16, 1
L16A, 52.7121, 1.07606, 53.4589, 1.0753,2, 2, 0, 0, 0, 16, 1
L16A, 52.7121, 1.07741, 53.4589, 1.07669,3, 2, 0, 0, 0, 16, 1
L16B, 53.4589, 1.09231, 54.2056, 1.09154,1, 2, 0, 0, 0, 16, 1
L16B, 53.4589, 1.0753, 54.2056, 1.07455,2, 2, 0, 0, 0, 16, 1
L16B, 53.4589, 1.07669, 54.2056, 1.07599,3, 2, 0, 0, 0, 16, 1
L28A, 54.2056, 1.09154, 54.4525, 1.09154,1, 2, 0, 0, 0, 16, 1
L28B, 54.4525, 1.09154, 54.6994, 1.09154,1, 2, 0, 0, 0, 16, 1
L29A, 54.2056, 1.09154, 55.0941, 1.09064,1, 2, 0, 0, 0, 16, 1
L29A, 54.2056, 1.07455, 55.0941, 1.07366,2, 2, 0, 0, 0, 16, 1
L29A, 54.2056, 1.07599, 55.0941, 1.07515,3, 2, 0, 0, 0, 16, 1
L29B, 55.0941, 1.09064, 55.9826, 1.08977,1, 2, 0, 0, 0, 16, 1
L29B, 55.0941, 1.07366, 55.9826, 1.07281,2, 2, 0, 0, 0, 16, 1
L29B, 55.0941, 1.07515, 55.9826, 1.07437,3, 2, 0, 0, 0, 16, 1
L17A, 55.9826, 1.08977, 56.2905, 1.08956,1, 2, 0, 0, 0, 16, 1
L17A, 55.9826, 1.07281, 56.2905, 1.07264,2, 2, 0, 0, 0, 16, 1
L17A, 55.9826, 1.07437, 56.2905, 1.07418,3, 2, 0, 0, 0, 16, 1
L17B, 56.2905, 1.08956, 56.5983, 1.08944,1, 2, 0, 0, 0, 16, 1
L17B, 56.2905, 1.07264, 56.5983, 1.07249,2, 2, 0, 0, 0, 16, 1
L17B, 56.2905, 1.07418, 56.5983, 1.07408,3, 2, 0, 0, 0, 16, 1
L30A, 56.5983, 1.08944, 57.0067, 1.08933,1, 2, 0, 0, 0, 16, 1
L30A, 56.5983, 1.07249, 57.0067, 1.07233,2, 2, 0, 0, 0, 16, 1
L30A, 56.5983, 1.07408, 57.0067, 1.07401,3, 2, 0, 0, 0, 16, 1
L30B, 57.0067, 1.08933, 57.4152, 1.08928,1, 2, 0, 0, 0, 16, 1
L30B, 57.0067, 1.07233, 57.4152, 1.07221,2, 2, 0, 0, 0, 16, 1
L30B, 57.0067, 1.07401, 57.4152, 1.07398,3, 2, 0, 0, 0, 16, 1
L20, 57.4152, 1.08928, 57.5005, 1.08928,1, 2, 0, 0, 0, 16, 1
L20, 57.4152, 1.07221, 57.5005, 1.0722,2, 2, 0, 0, 0, 16, 1
L20, 57.4152, 1.07398, 57.5005, 1.07398,3, 2, 0, 0, 0, 16, 1
L31A, 57.5005, 1.0722, 58.2412, 1.07208,2, 2, 0, 0, 0, 16, 1
L31B, 58.2412, 1.07208, 58.9818, 1.07208,2, 2, 0, 0, 0, 16, 1
L19A, 57.4152, 1.08928, 57.5462, 1.08927,1, 2, 0, 0, 0, 16, 1
L19A, 57.4152, 1.07221, 57.5462, 1.07219,2, 2, 0, 0, 0, 16, 1
L19A, 57.4152, 1.07398, 57.5462, 1.07397,3, 2, 0, 0, 0, 16, 1
L19B, 57.5462, 1.08927, 57.6773, 1.08926,1, 2, 0, 0, 0, 16, 1
L19B, 57.5462, 1.07219, 57.6773, 1.07219,2, 2, 0, 0, 0, 16, 1
L19B, 57.5462, 1.07397, 57.6773, 1.07396,3, 2, 0, 0, 0, 16, 1
L18, 55.9826, 1.08977, 56.068, 1.08975,1, 2, 0, 0, 0, 16, 1
L18, 55.9826, 1.07281, 56.068, 1.07277,2, 2, 0, 0, 0, 16, 1
L18, 55.9826, 1.07437, 56.068, 1.07435,3, 2, 0, 0, 0, 16, 1
L21A, 56.068, 1.08975, 56.2737, 1.0897,1, 2, 0, 0, 0, 16, 1
L21A, 56.068, 1.07277, 56.2737, 1.07269,2, 2, 0, 0, 0, 16, 1
L21A, 56.068, 1.07435, 56.2737, 1.0743,3, 2, 0, 0, 0, 16, 1
L21B, 56.2737, 1.0897, 56.4794, 1.08965,1, 2, 0, 0, 0, 16, 1
L21B, 56.2737, 1.07269, 56.4794, 1.0726,2, 2, 0, 0, 0, 16, 1
L21B, 56.2737, 1.0743, 56.4794, 1.07425,3, 2, 0, 0, 0, 16, 1
L22A, 56.4794, 1.08965, 57.0342, 1.08982,1, 2, 0, 0, 0, 16, 1
L22A, 56.4794, 1.0726, 57.0342, 1.07262,2, 2, 0, 0, 0, 16, 1
L22A, 56.4794, 1.07425, 57.0342, 1.07439,3, 2, 0, 0, 0, 16, 1
L22B, 57.0342, 1.08982, 57.5889, 1.08998,1, 2, 0, 0, 0, 16, 1
L22B, 57.0342, 1.07262, 57.5889, 1.07272,2, 2, 0, 0, 0, 16, 1
L22B, 57.0342, 1.07439, 57.5889, 1.07458,3, 2, 0, 0, 0, 16, 1
L23A, 57.5889, 1.08998, 57.6697, 1.09,1, 2, 0, 0, 0, 16, 1
L23A, 57.5889, 1.07272, 57.6697, 1.07273,2, 2, 0, 0, 0, 16, 1
L23A, 57.5889, 1.07458, 57.6697, 1.07461,3, 2, 0, 0, 0, 16, 1
L23B, 57.6697, 1.09, 57.7505, 1.09003,1, 2, 0, 0, 0, 16, 1
L23B, 57.6697, 1.07273, 57.7505, 1.07275,2, 2, 0, 0, 0, 16, 1
L23B, 57.6697, 1.07461, 57.7505, 1.07463,3, 2, 0, 0, 0, 16, 1
L26A, 41.4833, 1.02716, 45.0388, 1.0271,2, 2, 0, 0, 0, 16, 1
L26B, 45.0388, 1.0271, 48.5943, 1.02712,2, 2, 0, 0, 0, 16, 1
L12A, 34.8386, 1.03949, 35.3004, 1.03935,2, 2, 0, 0, 0, 16, 1
L12B, 35.3004, 1.03935, 35.7622, 1.03935,2, 2, 0, 0, 0, 16, 1
L8, 31.7266, 1.05238, 32.2478, 1.05171,1, 2, 0, 0, 0, 16, 1
L10A, 32.2478, 1.05171, 39.5859, 1.04222,1, 2, 0, 0, 0, 16, 1
L10B, 39.5859, 1.04222, 46.924, 1.03466,1, 2, 0, 0, 0, 16, 1
L11A, 46.924, 1.03466, 49.0179, 1.03248,1, 2, 0, 0, 0, 16, 1
L11B, 49.0179, 1.03248, 51.1119, 1.03249,1, 2, 0, 0, 0, 16, 1
L4A, 11.1374, 1.03687, 12.0219, 1.03676,2, 2, 0, 0, 0, 16, 1
L4B, 12.0219, 1.03676, 12.9065, 1.03676,2, 2, 0, 0, 0, 16, 1
