Name, Distance1, puV1, Distance2, puV2, Color, Thickness, Linetype, Markcenter, Centercode, NodeCode, NodeWidth,Title=L-N Voltage Profile, Distance in km
L1, 0, 1.04999, 0.786384, 1.04766,1, 2, 0, 0, 0, 16, 1
L1, 0, 1.04999, 0.786384, 1.04857,2, 2, 0, 0, 0, 16, 1
L1, 0, 1.05, 0.786384, 1.04857,3, 2, 0, 0, 0, 16, 1
L2A, 0.786384, 1.04766, 1.05004, 1.04688,1, 2, 0, 0, 0, 16, 1
L2A, 0.786384, 1.04857, 1.05004, 1.04809,2, 2, 0, 0, 0, 16, 1
L2A, 0.786384, 1.04857, 1.05004, 1.04809,3, 2, 0, 0, 0, 16, 1
L2B, 1.05004, 1.04688, 1.31369, 1.04609,1, 2, 0, 0, 0, 16, 1
L2B, 1.05004, 1.04809, 1.31369, 1.04766,2, 2, 0, 0, 0, 16, 1
L2B, 1.05004, 1.04809, 1.31369, 1.04764,3, 2, 0, 0, 0, 16, 1
L3, 1.31369, 1.04609, 11.1374, 1.01662,1, 2, 0, 0, 0, 16, 1
L3, 1.31369, 1.04766, 11.1374, 1.03153,2, 2, 0, 0, 0, 16, 1
L3, 1.31369, 1.04764, 11.1374, 1.0307,3, 2, 0, 0, 0, 16, 1
L5, 11.1374, 1.01662, 22.5674, 0.982356,1, 2, 0, 0, 0, 16, 1
L5, 11.1374, 1.03153, 22.5674, 1.01381,2, 2, 0, 0, 0, 16, 1
L5, 11.1374, 1.0307, 22.5674, 1.01063,3, 2, 0, 0, 0, 16, 1
L6, 22.5674, 0.982356, 31.6291, 0.955146,1, 2, 0, 0, 0, 16, 1
L6, 22.5674, 1.01381, 31.6291, 0.999808,2, 2, 0, 0, 0, 16, 1
L6, 22.5674, 1.01063, 31.6291, 0.99463,3, 2, 0, 0, 0, 16, 1
L7, 31.6291, 1.02677, 31.6321, 1.02676,1, 2, 0, 0, 0, 16, 1
L7, 31.6291, 1.03105, 31.6321, 1.03104,2, 2, 0, 0, 0, 16, 1
L7, 31.6291, 1.02571, 31.6321, 1.0257,3, 2, 0, 0, 0, 16, 1
L24, 31.6321, 1.02676, 31.7266, 1.02639,1, 2, 0, 0, 0, 16, 1
L24, 31.6321, 1.03104, 31.7266, 1.03081,2, 2, 0, 0, 0, 16, 1
L24, 31.6321, 1.0257, 31.7266, 1.02546,3, 2, 0, 0, 0, 16, 1
L9A, 31.7266, 1.02639, 33.2826, 1.02221,1, 2, 0, 0, 0, 16, 1
L9A, 31.7266, 1.03081, 33.2826, 1.02647,2, 2, 0, 0, 0, 16, 1
L9A, 31.7266, 1.02546, 33.2826, 1.02157,3, 2, 0, 0, 0, 16, 1
L9B, 33.2826, 1.02221, 34.8386, 1.01802,1, 2, 0, 0, 0, 16, 1
L9B, 33.2826, 1.02647, 34.8386, 1.02215,2, 2, 0, 0, 0, 16, 1
L9B, 33.2826, 1.02157, 34.8386, 1.0177,3, 2, 0, 0, 0, 16, 1
L13A, 34.8386, 1.01802, 34.9667, 1.01768,1, 2, 0, 0, 0, 16, 1
L13A, 34.8386, 1.02215, 34.9667, 1.02183,2, 2, 0, 0, 0, 16, 1
L13A, 34.8386, 1.0177, 34.9667, 1.01737,3, 2, 0, 0, 0, 16, 1
L13B, 34.9667, 1.01768, 35.0947, 1.01733,1, 2, 0, 0, 0, 16, 1
L13B, 34.9667, 1.02183, 35.0947, 1.02151,2, 2, 0, 0, 0, 16, 1
L13B, 34.9667, 1.01737, 35.0947, 1.01705,3, 2, 0, 0, 0, 16, 1
L14A, 35.0947, 1.01733, 38.2097, 1.00897,1, 2, 0, 0, 0, 16, 1
L14A, 35.0947, 1.02151, 38.2097, 1.01378,2, 2, 0, 0, 0, 16, 1
L14A, 35.0947, 1.01705, 38.2097, 1.00918,3, 2, 0, 0, 0, 16, 1
L14B, 38.2097, 1.00897, 41.3248, 1.00075,1, 2, 0, 0, 0, 16, 1
L14B, 38.2097, 1.01378, 41.3248, 1.00601,2, 2, 0, 0, 0, 16, 1
L14B, 38.2097, 1.00918, 41.3248, 1.00133,3, 2, 0, 0, 0, 16, 1
L15, 41.3248, 1.00075, 41.4833, 1.00035,1, 2, 0, 0, 0, 16, 1
L15, 41.3248, 1.00601, 41.4833, 1.00562,2, 2, 0, 0, 0, 16, 1
L15, 41.3248, 1.00133, 41.4833, 1.00094,3, 2, 0, 0, 0, 16, 1
L27, 41.4833, 1.00035, 52.7091, 0.971881,1, 2, 0, 0, 0, 16, 1
L27, 41.4833, 1.00562, 52.7091, 0.978363,2, 2, 0, 0, 0, 16, 1
L27, 41.4833, 1.00094, 52.7091, 0.973659,3, 2, 0, 0, 0, 16, 1
L25, 52.7091, 1.05084, 52.7121, 1.05084,1, 2, 0, 0, 0, 16, 1
L25, 52.7091, 1.04562, 52.7121, 1.04562,2, 2, 0, 0, 0, 16, 1
L25, 52.7091, 1.04668, 52.7121, 1.04668,3, 2, 0, 0, 0, 16, 1
L32, 52.7121, 1.01684, 55.9308, 0.939236,1, 2, 0, 0, 0, 16, 1
L32, 52.7121, 1.0118, 55.9308, 0.941839,2, 2, 0, 0, 0, 16, 1
L32, 52.7121, 1.01298, 55.9308, 0.935973,3, 2, 0, 0, 0, 16, 1
L16A, 52.7121, 1.05084, 53.4589, 1.04976,1, 2, 0, 0, 0, 16, 1
L16A, 52.7121, 1.04562, 53.4589, 1.04455,2, 2, 0, 0, 0, 16, 1
L16A, 52.7121, 1.04668, 53.4589, 1.04567,3, 2, 0, 0, 0, 16, 1
L16B, 53.4589, 1.04976, 54.2056, 1.04871,1, 2, 0, 0, 0, 16, 1
L16B, 53.4589, 1.04455, 54.2056, 1.0435,2, 2, 0, 0, 0, 16, 1
L16B, 53.4589, 1.04567, 54.2056, 1.04469,3, 2, 0, 0, 0, 16, 1
L28A, 54.2056, 1.04871, 54.4525, 1.04871,1, 2, 0, 0, 0, 16, 1
L28B, 54.4525, 1.04871, 54.6994, 1.04871,1, 2, 0, 0, 0, 16, 1
L29A, 54.2056, 1.04871, 55.0941, 1.04747,1, 2, 0, 0, 0, 16, 1
L29A, 54.2056, 1.0435, 55.0941, 1.04225,2, 2, 0, 0, 0, 16, 1
L29A, 54.2056, 1.04469, 55.0941, 1.04351,3, 2, 0, 0, 0, 16, 1
L29B, 55.0941, 1.04747, 55.9826, 1.04628,1, 2, 0, 0, 0, 16, 1
L29B, 55.0941, 1.04225, 55.9826, 1.04105,2, 2, 0, 0, 0, 16, 1
L29B, 55.0941, 1.04351, 55.9826, 1.04241,3, 2, 0, 0, 0, 16, 1
L17A, 55.9826, 1.04628, 56.2905, 1.04602,1, 2, 0, 0, 0, 16, 1
L17A, 55.9826, 1.04105, 56.2905, 1.04084,2, 2, 0, 0, 0, 16, 1
L17A, 55.9826, 1.04241, 56.2905, 1.04218,3, 2, 0, 0, 0, 16, 1
L17B, 56.2905, 1.04602, 56.5983, 1.04587,1, 2, 0, 0, 0, 16, 1
L17B, 56.2905, 1.04084, 56.5983, 1.04065,2, 2, 0, 0, 0, 16, 1
L17B, 56.2905, 1.04218, 56.5983, 1.04206,3, 2, 0, 0, 0, 16, 1
L30A, 56.5983, 1.04587, 57.0067, 1.04574,1, 2, 0, 0, 0, 16, 1
L30A, 56.5983, 1.04065, 57.0067, 1.04046,2, 2, 0, 0, 0, 16, 1
L30A, 56.5983, 1.04206, 57.0067, 1.04197,3, 2, 0, 0, 0, 16, 1
L30B, 57.0067, 1.04574, 57.4152, 1.04568,1, 2, 0, 0, 0, 16, 1
L30B, 57.0067, 1.04046, 57.4152, 1.04031,2, 2, 0, 0, 0, 16, 1
L30B, 57.0067, 1.04197, 57.4152, 1.04193,3, 2, 0, 0, 0, 16, 1
L20, 57.4152, 1.04568, 57.5005, 1.04568,1, 2, 0, 0, 0, 16, 1
L20, 57.4152, 1.04031, 57.5005, 1.04029,2, 2, 0, 0, 0, 16, 1
L20, 57.4152, 1.04193, 57.5005, 1.04194,3, 2, 0, 0, 0, 16, 1
L31A, 57.5005, 1.04029, 58.2412, 1.04015,2, 2, 0, 0, 0, 16, 1
L31B, 58.2412, 1.04015, 58.9818, 1.04015,2, 2, 0, 0, 0, 16, 1
L19A, 57.4152, 1.04568, 57.5462, 1.04567,1, 2, 0, 0, 0, 16, 1
L19A, 57.4152, 1.04031, 57.5462, 1.04029,2, 2, 0, 0, 0, 16, 1
L19A, 57.4152, 1.04193, 57.5462, 1.04192,3, 2, 0, 0, 0, 16, 1
L19B, 57.5462, 1.04567, 57.6773, 1.04566,1, 2, 0, 0, 0, 16, 1
L19B, 57.5462, 1.04029, 57.6773, 1.04028,2, 2, 0, 0, 0, 16, 1
L19B, 57.5462, 1.04192, 57.6773, 1.04191,3, 2, 0, 0, 0, 16, 1
L18, 55.9826, 1.04628, 56.068, 1.04624,1, 2, 0, 0, 0, 16, 1
L18, 55.9826, 1.04105, 56.068, 1.04099,2, 2, 0, 0, 0, 16, 1
L18, 55.9826, 1.04241, 56.068, 1.04237,3, 2, 0, 0, 0, 16, 1
L21A, 56.068, 1.04624, 56.2737, 1.04614,1, 2, 0, 0, 0, 16, 1
L21A, 56.068, 1.04099, 56.2737, 1.04085,2, 2, 0, 0, 0, 16, 1
L21A, 56.068, 1.04237, 56.2737, 1.04228,3, 2, 0, 0, 0, 16, 1
L21B, 56.2737, 1.04614, 56.4794, 1.04605,1, 2, 0, 0, 0, 16, 1
L21B, 56.2737, 1.04085, 56.4794, 1.04071,2, 2, 0, 0, 0, 16, 1
L21B, 56.2737, 1.04228, 56.4794, 1.04218,3, 2, 0, 0, 0, 16, 1
L22A, 56.4794, 1.04605, 57.0342, 1.0462,1, 2, 0, 0, 0, 16, 1
L22A, 56.4794, 1.04071, 57.0342, 1.04067,2, 2, 0, 0, 0, 16, 1
L22A, 56.4794, 1.04218, 57.0342, 1.0423,3, 2, 0, 0, 0, 16, 1
L22B, 57.0342, 1.0462, 57.5889, 1.04633,1, 2, 0, 0, 0, 16, 1
L22B, 57.0342, 1.04067, 57.5889, 1.04073,2, 2, 0, 0, 0, 16, 1
L22B, 57.0342, 1.0423, 57.5889, 1.04247,3, 2, 0, 0, 0, 16, 1
L23A, 57.5889, 1.04633, 57.6697, 1.04635,1, 2, 0, 0, 0, 16, 1
L23A, 57.5889, 1.04073, 57.6697, 1.04074,2, 2, 0, 0, 0, 16, 1
L23A, 57.5889, 1.04247, 57.6697, 1.0425,3, 2, 0, 0, 0, 16, 1
L23B, 57.6697, 1.04635, 57.7505, 1.04637,1, 2, 0, 0, 0, 16, 1
L23B, 57.6697, 1.04074, 57.7505, 1.04076,2, 2, 0, 0, 0, 16, 1
L23B, 57.6697, 1.0425, 57.7505, 1.04252,3, 2, 0, 0, 0, 16, 1
L26A, 41.4833, 1.00562, 45.0388, 1.00553,2, 2, 0, 0, 0, 16, 1
L26B, 45.0388, 1.00553, 48.5943, 1.00554,2, 2, 0, 0, 0, 16, 1
L12A, 34.8386, 1.02215, 35.3004, 1.02196,2, 2, 0, 0, 0, 16, 1
L12B, 35.3004, 1.02196, 35.7622, 1.02196,2, 2, 0, 0, 0, 16, 1
L8, 31.7266, 1.02639, 32.2478, 1.02553,1, 2, 0, 0, 0, 16, 1
L10A, 32.2478, 1.02553, 39.5859, 1.01334,1, 2, 0, 0, 0, 16, 1
L10B, 39.5859, 1.01334, 46.924, 1.00354,1, 2, 0, 0, 0, 16, 1
L11A, 46.924, 1.00354, 49.0179, 1.00071,1, 2, 0, 0, 0, 16, 1
L11B, 49.0179, 1.00071, 51.1119, 1.00072,1, 2, 0, 0, 0, 16, 1
L4A, 11.1374, 1.03153, 12.0219, 1.03139,2, 2, 0, 0, 0, 16, 1
L4B, 12.0219, 1.03139, 12.9065, 1.03139,2, 2, 0, 0, 0, 16, 1
