Name, Distance1, puV1, Distance2, puV2, Color, Thickness, Linetype, Markcenter, Centercode, NodeCode, NodeWidth,Title=L-N Voltage Profile, Distance in km
L1, 0, 1.05, 0.786384, 1.04842,1, 2, 0, 0, 0, 16, 1
L1, 0, 1.05, 0.786384, 1.04919,2, 2, 0, 0, 0, 16, 1
L1, 0, 1.05, 0.786384, 1.04932,3, 2, 0, 0, 0, 16, 1
L2A, 0.786384, 1.04842, 1.05004, 1.04789,1, 2, 0, 0, 0, 16, 1
L2A, 0.786384, 1.04919, 1.05004, 1.04892,2, 2, 0, 0, 0, 16, 1
L2A, 0.786384, 1.04932, 1.05004, 1.0491,3, 2, 0, 0, 0, 16, 1
L2B, 1.05004, 1.04789, 1.31369, 1.04735,1, 2, 0, 0, 0, 16, 1
L2B, 1.05004, 1.04892, 1.31369, 1.04869,2, 2, 0, 0, 0, 16, 1
L2B, 1.05004, 1.0491, 1.31369, 1.0489,3, 2, 0, 0, 0, 16, 1
L3, 1.31369, 1.04735, 11.1374, 1.02727,1, 2, 0, 0, 0, 16, 1
L3, 1.31369, 1.04869, 11.1374, 1.04024,2, 2, 0, 0, 0, 16, 1
L3, 1.31369, 1.0489, 11.1374, 1.04137,3, 2, 0, 0, 0, 16, 1
L5, 11.1374, 1.02727, 22.5674, 1.00377,1, 2, 0, 0, 0, 16, 1
L5, 11.1374, 1.04024, 22.5674, 1.03133,2, 2, 0, 0, 0, 16, 1
L5, 11.1374, 1.04137, 22.5674, 1.03209,3, 2, 0, 0, 0, 16, 1
L6, 22.5674, 1.00377, 31.6291, 0.984975,1, 2, 0, 0, 0, 16, 1
L6, 22.5674, 1.03133, 31.6291, 1.02419,2, 2, 0, 0, 0, 16, 1
L6, 22.5674, 1.03209, 31.6291, 1.02456,3, 2, 0, 0, 0, 16, 1
L7, 31.6291, 1.05884, 31.6321, 1.05883,1, 2, 0, 0, 0, 16, 1
L7, 31.6291, 1.05619, 31.6321, 1.05619,2, 2, 0, 0, 0, 16, 1
L7, 31.6291, 1.05657, 31.6321, 1.05657,3, 2, 0, 0, 0, 16, 1
L24, 31.6321, 1.05883, 31.7266, 1.05858,1, 2, 0, 0, 0, 16, 1
L24, 31.6321, 1.05619, 31.7266, 1.05607,2, 2, 0, 0, 0, 16, 1
L24, 31.6321, 1.05657, 31.7266, 1.05645,3, 2, 0, 0, 0, 16, 1
L9A, 31.7266, 1.05858, 33.2826, 1.05643,1, 2, 0, 0, 0, 16, 1
L9A, 31.7266, 1.05607, 33.2826, 1.05352,2, 2, 0, 0, 0, 16, 1
L9A, 31.7266, 1.05645, 33.2826, 1.05461,3, 2, 0, 0, 0, 16, 1
L9B, 33.2826, 1.05643, 34.8386, 1.05428,1, 2, 0, 0, 0, 16, 1
L9B, 33.2826, 1.05352, 34.8386, 1.051,2, 2, 0, 0, 0, 16, 1
L9B, 33.2826, 1.05461, 34.8386, 1.05279,3, 2, 0, 0, 0, 16, 1
L13A, 34.8386, 1.05428, 34.9667, 1.0541,1, 2, 0, 0, 0, 16, 1
L13A, 34.8386, 1.051, 34.9667, 1.05083,2, 2, 0, 0, 0, 16, 1
L13A, 34.8386, 1.05279, 34.9667, 1.05263,3, 2, 0, 0, 0, 16, 1
L13B, 34.9667, 1.0541, 35.0947, 1.05393,1, 2, 0, 0, 0, 16, 1
L13B, 34.9667, 1.05083, 35.0947, 1.05066,2, 2, 0, 0, 0, 16, 1
L13B, 34.9667, 1.05263, 35.0947, 1.05248,3, 2, 0, 0, 0, 16, 1
L14A, 35.0947, 1.05393, 38.2097, 1.04964,1, 2, 0, 0, 0, 16, 1
L14A, 35.0947, 1.05066, 38.2097, 1.04656,2, 2, 0, 0, 0, 16, 1
L14A, 35.0947, 1.05248, 38.2097, 1.04869,3, 2, 0, 0, 0, 16, 1
L14B, 38.2097, 1.04964, 41.3248, 1.04548,1, 2, 0, 0, 0, 16, 1
L14B, 38.2097, 1.04656, 41.3248, 1.0424,2, 2, 0, 0, 0, 16, 1
L14B, 38.2097, 1.04869, 41.3248, 1.0449,3, 2, 0, 0, 0, 16, 1
L15, 41.3248, 1.04548, 41.4833, 1.04529,1, 2, 0, 0, 0, 16, 1
L15, 41.3248, 1.0424, 41.4833, 1.0422,2, 2, 0, 0, 0, 16, 1
L15, 41.3248, 1.0449, 41.4833, 1.04472,3, 2, 0, 0, 0, 16, 1
L27, 41.4833, 1.04529, 52.7091, 1.03151,1, 2, 0, 0, 0, 16, 1
L27, 41.4833, 1.0422, 52.7091, 1.02792,2, 2, 0, 0, 0, 16, 1
L27, 41.4833, 1.04472, 52.7091, 1.03207,3, 2, 0, 0, 0, 16, 1
L25, 52.7091, 1.11532, 52.7121, 1.11532,1, 2, 0, 0, 0, 16, 1
L25, 52.7091, 1.09859, 52.7121, 1.09858,2, 2, 0, 0, 0, 16, 1
L25, 52.7091, 1.10948, 52.7121, 1.10947,3, 2, 0, 0, 0, 16, 1
L32, 52.7121, 1.07962, 55.9308, 0.998252,1, 2, 0, 0, 0, 16, 1
L32, 52.7121, 1.06325, 55.9308, 0.99012,2, 2, 0, 0, 0, 16, 1
L32, 52.7121, 1.07425, 55.9308, 0.993635,3, 2, 0, 0, 0, 16, 1
L16A, 52.7121, 1.11532, 53.4589, 1.11517,1, 2, 0, 0, 0, 16, 1
L16A, 52.7121, 1.09858, 53.4589, 1.09835,2, 2, 0, 0, 0, 16, 1
L16A, 52.7121, 1.10947, 53.4589, 1.1094,3, 2, 0, 0, 0, 16, 1
L16B, 53.4589, 1.11517, 54.2056, 1.11506,1, 2, 0, 0, 0, 16, 1
L16B, 53.4589, 1.09835, 54.2056, 1.09814,2, 2, 0, 0, 0, 16, 1
L16B, 53.4589, 1.1094, 54.2056, 1.10934,3, 2, 0, 0, 0, 16, 1
L28A, 54.2056, 1.11506, 54.4525, 1.11506,1, 2, 0, 0, 0, 16, 1
L28B, 54.4525, 1.11506, 54.6994, 1.11506,1, 2, 0, 0, 0, 16, 1
L29A, 54.2056, 1.11506, 55.0941, 1.11367,1, 2, 0, 0, 0, 16, 1
L29A, 54.2056, 1.09814, 55.0941, 1.09675,2, 2, 0, 0, 0, 16, 1
L29A, 54.2056, 1.10934, 55.0941, 1.10801,3, 2, 0, 0, 0, 16, 1
L29B, 55.0941, 1.11367, 55.9826, 1.11232,1, 2, 0, 0, 0, 16, 1
L29B, 55.0941, 1.09675, 55.9826, 1.0954,2, 2, 0, 0, 0, 16, 1
L29B, 55.0941, 1.10801, 55.9826, 1.10676,3, 2, 0, 0, 0, 16, 1
L17A, 55.9826, 1.11232, 56.2905, 1.11203,1, 2, 0, 0, 0, 16, 1
L17A, 55.9826, 1.0954, 56.2905, 1.09517,2, 2, 0, 0, 0, 16, 1
L17A, 55.9826, 1.10676, 56.2905, 1.1065,3, 2, 0, 0, 0, 16, 1
L17B, 56.2905, 1.11203, 56.5983, 1.11187,1, 2, 0, 0, 0, 16, 1
L17B, 56.2905, 1.09517, 56.5983, 1.09497,2, 2, 0, 0, 0, 16, 1
L17B, 56.2905, 1.1065, 56.5983, 1.10638,3, 2, 0, 0, 0, 16, 1
L30A, 56.5983, 1.11187, 57.0067, 1.11172,1, 2, 0, 0, 0, 16, 1
L30A, 56.5983, 1.09497, 57.0067, 1.09476,2, 2, 0, 0, 0, 16, 1
L30A, 56.5983, 1.10638, 57.0067, 1.10627,3, 2, 0, 0, 0, 16, 1
L30B, 57.0067, 1.11172, 57.4152, 1.11166,1, 2, 0, 0, 0, 16, 1
L30B, 57.0067, 1.09476, 57.4152, 1.0946,2, 2, 0, 0, 0, 16, 1
L30B, 57.0067, 1.10627, 57.4152, 1.10624,3, 2, 0, 0, 0, 16, 1
L20, 57.4152, 1.11166, 57.5005, 1.11166,1, 2, 0, 0, 0, 16, 1
L20, 57.4152, 1.0946, 57.5005, 1.09458,2, 2, 0, 0, 0, 16, 1
L20, 57.4152, 1.10624, 57.5005, 1.10624,3, 2, 0, 0, 0, 16, 1
L31A, 57.5005, 1.09458, 58.2412, 1.09442,2, 2, 0, 0, 0, 16, 1
L31B, 58.2412, 1.09442, 58.9818, 1.09443,2, 2, 0, 0, 0, 16, 1
L19A, 57.4152, 1.11166, 57.5462, 1.11165,1, 2, 0, 0, 0, 16, 1
L19A, 57.4152, 1.0946, 57.5462, 1.09458,2, 2, 0, 0, 0, 16, 1
L19A, 57.4152, 1.10624, 57.5462, 1.10622,3, 2, 0, 0, 0, 16, 1
L19B, 57.5462, 1.11165, 57.6773, 1.11164,1, 2, 0, 0, 0, 16, 1
L19B, 57.5462, 1.09458, 57.6773, 1.09457,2, 2, 0, 0, 0, 16, 1
L19B, 57.5462, 1.10622, 57.6773, 1.10621,3, 2, 0, 0, 0, 16, 1
L18, 55.9826, 1.11232, 56.068, 1.11227,1, 2, 0, 0, 0, 16, 1
L18, 55.9826, 1.0954, 56.068, 1.09534,2, 2, 0, 0, 0, 16, 1
L18, 55.9826, 1.10676, 56.068, 1.10672,3, 2, 0, 0, 0, 16, 1
L21A, 56.068, 1.11227, 56.2737, 1.11216,1, 2, 0, 0, 0, 16, 1
L21A, 56.068, 1.09534, 56.2737, 1.09518,2, 2, 0, 0, 0, 16, 1
L21A, 56.068, 1.10672, 56.2737, 1.1066,3, 2, 0, 0, 0, 16, 1
L21B, 56.2737, 1.11216, 56.4794, 1.11205,1, 2, 0, 0, 0, 16, 1
L21B, 56.2737, 1.09518, 56.4794, 1.09502,2, 2, 0, 0, 0, 16, 1
L21B, 56.2737, 1.1066, 56.4794, 1.10649,3, 2, 0, 0, 0, 16, 1
L22A, 56.4794, 1.11205, 57.0342, 1.11221,1, 2, 0, 0, 0, 16, 1
L22A, 56.4794, 1.09502, 57.0342, 1.09496,2, 2, 0, 0, 0, 16, 1
L22A, 56.4794, 1.10649, 57.0342, 1.10661,3, 2, 0, 0, 0, 16, 1
L22B, 57.0342, 1.11221, 57.5889, 1.11235,1, 2, 0, 0, 0, 16, 1
L22B, 57.0342, 1.09496, 57.5889, 1.09502,2, 2, 0, 0, 0, 16, 1
L22B, 57.0342, 1.10661, 57.5889, 1.1068,3, 2, 0, 0, 0, 16, 1
L23A, 57.5889, 1.11235, 57.6697, 1.11237,1, 2, 0, 0, 0, 16, 1
L23A, 57.5889, 1.09502, 57.6697, 1.09503,2, 2, 0, 0, 0, 16, 1
L23A, 57.5889, 1.1068, 57.6697, 1.10682,3, 2, 0, 0, 0, 16, 1
L23B, 57.6697, 1.11237, 57.7505, 1.11239,1, 2, 0, 0, 0, 16, 1
L23B, 57.6697, 1.09503, 57.7505, 1.09505,2, 2, 0, 0, 0, 16, 1
L23B, 57.6697, 1.10682, 57.7505, 1.10685,3, 2, 0, 0, 0, 16, 1
L26A, 41.4833, 1.0422, 45.0388, 1.0421,2, 2, 0, 0, 0, 16, 1
L26B, 45.0388, 1.0421, 48.5943, 1.04212,2, 2, 0, 0, 0, 16, 1
L12A, 34.8386, 1.051, 35.3004, 1.0508,2, 2, 0, 0, 0, 16, 1
L12B, 35.3004, 1.0508, 35.7622, 1.0508,2, 2, 0, 0, 0, 16, 1
L8, 31.7266, 1.05858, 32.2478, 1.0577,1, 2, 0, 0, 0, 16, 1
L10A, 32.2478, 1.0577, 39.5859, 1.04516,1, 2, 0, 0, 0, 16, 1
L10B, 39.5859, 1.04516, 46.924, 1.03522,1, 2, 0, 0, 0, 16, 1
L11A, 46.924, 1.03522, 49.0179, 1.03235,1, 2, 0, 0, 0, 16, 1
L11B, 49.0179, 1.03235, 51.1119, 1.03236,1, 2, 0, 0, 0, 16, 1
L4A, 11.1374, 1.04024, 12.0219, 1.04009,2, 2, 0, 0, 0, 16, 1
L4B, 12.0219, 1.04009, 12.9065, 1.04009,2, 2, 0, 0, 0, 16, 1
