Name, Distance1, puV1, Distance2, puV2, Color, Thickness, Linetype, Markcenter, Centercode, NodeCode, NodeWidth,Title=L-N Voltage Profile, Distance in km
L1, 0, 1.05, 0.786384, 1.0487,1, 2, 0, 0, 0, 16, 1
L1, 0, 1.05, 0.786384, 1.04928,2, 2, 0, 0, 0, 16, 1
L1, 0, 1.05, 0.786384, 1.04925,3, 2, 0, 0, 0, 16, 1
L2A, 0.786384, 1.0487, 1.05004, 1.04826,1, 2, 0, 0, 0, 16, 1
L2A, 0.786384, 1.04928, 1.05004, 1.04904,2, 2, 0, 0, 0, 16, 1
L2A, 0.786384, 1.04925, 1.05004, 1.049,3, 2, 0, 0, 0, 16, 1
L2B, 1.05004, 1.04826, 1.31369, 1.04782,1, 2, 0, 0, 0, 16, 1
L2B, 1.05004, 1.04904, 1.31369, 1.04882,2, 2, 0, 0, 0, 16, 1
L2B, 1.05004, 1.049, 1.31369, 1.04877,3, 2, 0, 0, 0, 16, 1
L3, 1.31369, 1.04782, 11.1374, 1.0314,1, 2, 0, 0, 0, 16, 1
L3, 1.31369, 1.04882, 11.1374, 1.04088,2, 2, 0, 0, 0, 16, 1
L3, 1.31369, 1.04877, 11.1374, 1.04005,3, 2, 0, 0, 0, 16, 1
L5, 11.1374, 1.0314, 22.5674, 1.01232,1, 2, 0, 0, 0, 16, 1
L5, 11.1374, 1.04088, 22.5674, 1.03228,2, 2, 0, 0, 0, 16, 1
L5, 11.1374, 1.04005, 22.5674, 1.02963,3, 2, 0, 0, 0, 16, 1
L6, 22.5674, 1.01232, 31.6291, 0.997152,1, 2, 0, 0, 0, 16, 1
L6, 22.5674, 1.03228, 31.6291, 1.02548,2, 2, 0, 0, 0, 16, 1
L6, 22.5674, 1.02963, 31.6291, 1.02131,3, 2, 0, 0, 0, 16, 1
L7, 31.6291, 1.07194, 31.6321, 1.07193,1, 2, 0, 0, 0, 16, 1
L7, 31.6291, 1.05753, 31.6321, 1.05753,2, 2, 0, 0, 0, 16, 1
L7, 31.6291, 1.05323, 31.6321, 1.05323,3, 2, 0, 0, 0, 16, 1
L24, 31.6321, 1.07193, 31.7266, 1.07172,1, 2, 0, 0, 0, 16, 1
L24, 31.6321, 1.05753, 31.7266, 1.0574,2, 2, 0, 0, 0, 16, 1
L24, 31.6321, 1.05323, 31.7266, 1.05309,3, 2, 0, 0, 0, 16, 1
L9A, 31.7266, 1.07172, 33.2826, 1.06929,1, 2, 0, 0, 0, 16, 1
L9A, 31.7266, 1.0574, 33.2826, 1.05493,2, 2, 0, 0, 0, 16, 1
L9A, 31.7266, 1.05309, 33.2826, 1.05088,3, 2, 0, 0, 0, 16, 1
L9B, 33.2826, 1.06929, 34.8386, 1.06687,1, 2, 0, 0, 0, 16, 1
L9B, 33.2826, 1.05493, 34.8386, 1.05248,2, 2, 0, 0, 0, 16, 1
L9B, 33.2826, 1.05088, 34.8386, 1.04869,3, 2, 0, 0, 0, 16, 1
L13A, 34.8386, 1.06687, 34.9667, 1.06667,1, 2, 0, 0, 0, 16, 1
L13A, 34.8386, 1.05248, 34.9667, 1.0523,2, 2, 0, 0, 0, 16, 1
L13A, 34.8386, 1.04869, 34.9667, 1.0485,3, 2, 0, 0, 0, 16, 1
L13B, 34.9667, 1.06667, 35.0947, 1.06648,1, 2, 0, 0, 0, 16, 1
L13B, 34.9667, 1.0523, 35.0947, 1.05212,2, 2, 0, 0, 0, 16, 1
L13B, 34.9667, 1.0485, 35.0947, 1.04832,3, 2, 0, 0, 0, 16, 1
L14A, 35.0947, 1.06648, 38.2097, 1.06165,1, 2, 0, 0, 0, 16, 1
L14A, 35.0947, 1.05212, 38.2097, 1.04781,2, 2, 0, 0, 0, 16, 1
L14A, 35.0947, 1.04832, 38.2097, 1.04385,3, 2, 0, 0, 0, 16, 1
L14B, 38.2097, 1.06165, 41.3248, 1.0569,1, 2, 0, 0, 0, 16, 1
L14B, 38.2097, 1.04781, 41.3248, 1.04348,2, 2, 0, 0, 0, 16, 1
L14B, 38.2097, 1.04385, 41.3248, 1.03938,3, 2, 0, 0, 0, 16, 1
L15, 41.3248, 1.0569, 41.4833, 1.05667,1, 2, 0, 0, 0, 16, 1
L15, 41.3248, 1.04348, 41.4833, 1.04327,2, 2, 0, 0, 0, 16, 1
L15, 41.3248, 1.03938, 41.4833, 1.03917,3, 2, 0, 0, 0, 16, 1
L27, 41.4833, 1.05667, 52.7091, 1.0404,1, 2, 0, 0, 0, 16, 1
L27, 41.4833, 1.04327, 52.7091, 1.0281,2, 2, 0, 0, 0, 16, 1
L27, 41.4833, 1.03917, 52.7091, 1.0238,3, 2, 0, 0, 0, 16, 1
L25, 52.7091, 1.12493, 52.7121, 1.12493,1, 2, 0, 0, 0, 16, 1
L25, 52.7091, 1.09878, 52.7121, 1.09878,2, 2, 0, 0, 0, 16, 1
L25, 52.7091, 1.1006, 52.7121, 1.10059,3, 2, 0, 0, 0, 16, 1
L32, 52.7121, 1.103, 55.9308, 1.05247,1, 2, 0, 0, 0, 16, 1
L32, 52.7121, 1.07691, 55.9308, 1.03152,2, 2, 0, 0, 0, 16, 1
L32, 52.7121, 1.07889, 55.9308, 1.02883,3, 2, 0, 0, 0, 16, 1
L16A, 52.7121, 1.12493, 53.4589, 1.12437,1, 2, 0, 0, 0, 16, 1
L16A, 52.7121, 1.09878, 53.4589, 1.09825,2, 2, 0, 0, 0, 16, 1
L16A, 52.7121, 1.10059, 53.4589, 1.10009,3, 2, 0, 0, 0, 16, 1
L16B, 53.4589, 1.12437, 54.2056, 1.12382,1, 2, 0, 0, 0, 16, 1
L16B, 53.4589, 1.09825, 54.2056, 1.09772,2, 2, 0, 0, 0, 16, 1
L16B, 53.4589, 1.10009, 54.2056, 1.0996,3, 2, 0, 0, 0, 16, 1
L28A, 54.2056, 1.12382, 54.4525, 1.12382,1, 2, 0, 0, 0, 16, 1
L28B, 54.4525, 1.12382, 54.6994, 1.12382,1, 2, 0, 0, 0, 16, 1
L29A, 54.2056, 1.12382, 55.0941, 1.12318,1, 2, 0, 0, 0, 16, 1
L29A, 54.2056, 1.09772, 55.0941, 1.0971,2, 2, 0, 0, 0, 16, 1
L29A, 54.2056, 1.0996, 55.0941, 1.09901,3, 2, 0, 0, 0, 16, 1
L29B, 55.0941, 1.12318, 55.9826, 1.12257,1, 2, 0, 0, 0, 16, 1
L29B, 55.0941, 1.0971, 55.9826, 1.09651,2, 2, 0, 0, 0, 16, 1
L29B, 55.0941, 1.09901, 55.9826, 1.09848,3, 2, 0, 0, 0, 16, 1
L17A, 55.9826, 1.12257, 56.2905, 1.12239,1, 2, 0, 0, 0, 16, 1
L17A, 55.9826, 1.09651, 56.2905, 1.09637,2, 2, 0, 0, 0, 16, 1
L17A, 55.9826, 1.09848, 56.2905, 1.09832,3, 2, 0, 0, 0, 16, 1
L17B, 56.2905, 1.12239, 56.5983, 1.12229,1, 2, 0, 0, 0, 16, 1
L17B, 56.2905, 1.09637, 56.5983, 1.09624,2, 2, 0, 0, 0, 16, 1
L17B, 56.2905, 1.09832, 56.5983, 1.09824,3, 2, 0, 0, 0, 16, 1
L30A, 56.5983, 1.12229, 57.0067, 1.1222,1, 2, 0, 0, 0, 16, 1
L30A, 56.5983, 1.09624, 57.0067, 1.09611,2, 2, 0, 0, 0, 16, 1
L30A, 56.5983, 1.09824, 57.0067, 1.09817,3, 2, 0, 0, 0, 16, 1
L30B, 57.0067, 1.1222, 57.4152, 1.12216,1, 2, 0, 0, 0, 16, 1
L30B, 57.0067, 1.09611, 57.4152, 1.09601,2, 2, 0, 0, 0, 16, 1
L30B, 57.0067, 1.09817, 57.4152, 1.09815,3, 2, 0, 0, 0, 16, 1
L20, 57.4152, 1.12216, 57.5005, 1.12216,1, 2, 0, 0, 0, 16, 1
L20, 57.4152, 1.09601, 57.5005, 1.096,2, 2, 0, 0, 0, 16, 1
L20, 57.4152, 1.09815, 57.5005, 1.09815,3, 2, 0, 0, 0, 16, 1
L31A, 57.5005, 1.096, 58.2412, 1.09591,2, 2, 0, 0, 0, 16, 1
L31B, 58.2412, 1.09591, 58.9818, 1.09591,2, 2, 0, 0, 0, 16, 1
L19A, 57.4152, 1.12216, 57.5462, 1.12215,1, 2, 0, 0, 0, 16, 1
L19A, 57.4152, 1.09601, 57.5462, 1.096,2, 2, 0, 0, 0, 16, 1
L19A, 57.4152, 1.09815, 57.5462, 1.09814,3, 2, 0, 0, 0, 16, 1
L19B, 57.5462, 1.12215, 57.6773, 1.12214,1, 2, 0, 0, 0, 16, 1
L19B, 57.5462, 1.096, 57.6773, 1.09599,2, 2, 0, 0, 0, 16, 1
L19B, 57.5462, 1.09814, 57.6773, 1.09813,3, 2, 0, 0, 0, 16, 1
L18, 55.9826, 1.12257, 56.068, 1.12256,1, 2, 0, 0, 0, 16, 1
L18, 55.9826, 1.09651, 56.068, 1.09649,2, 2, 0, 0, 0, 16, 1
L18, 55.9826, 1.09848, 56.068, 1.09847,3, 2, 0, 0, 0, 16, 1
L21A, 56.068, 1.12256, 56.2737, 1.12254,1, 2, 0, 0, 0, 16, 1
L21A, 56.068, 1.09649, 56.2737, 1.09645,2, 2, 0, 0, 0, 16, 1
L21A, 56.068, 1.09847, 56.2737, 1.09845,3, 2, 0, 0, 0, 16, 1
L21B, 56.2737, 1.12254, 56.4794, 1.12253,1, 2, 0, 0, 0, 16, 1
L21B, 56.2737, 1.09645, 56.4794, 1.0964,2, 2, 0, 0, 0, 16, 1
L21B, 56.2737, 1.09845, 56.4794, 1.09844,3, 2, 0, 0, 0, 16, 1
L22A, 56.4794, 1.12253, 57.0342, 1.12272,1, 2, 0, 0, 0, 16, 1
L22A, 56.4794, 1.0964, 57.0342, 1.09646,2, 2, 0, 0, 0, 16, 1
L22A, 56.4794, 1.09844, 57.0342, 1.0986,3, 2, 0, 0, 0, 16, 1
L22B, 57.0342, 1.12272, 57.5889, 1.1229,1, 2, 0, 0, 0, 16, 1
L22B, 57.0342, 1.09646, 57.5889, 1.09659,2, 2, 0, 0, 0, 16, 1
L22B, 57.0342, 1.0986, 57.5889, 1.0988,3, 2, 0, 0, 0, 16, 1
L23A, 57.5889, 1.1229, 57.6697, 1.12293,1, 2, 0, 0, 0, 16, 1
L23A, 57.5889, 1.09659, 57.6697, 1.0966,2, 2, 0, 0, 0, 16, 1
L23A, 57.5889, 1.0988, 57.6697, 1.09883,3, 2, 0, 0, 0, 16, 1
L23B, 57.6697, 1.12293, 57.7505, 1.12295,1, 2, 0, 0, 0, 16, 1
L23B, 57.6697, 1.0966, 57.7505, 1.09663,2, 2, 0, 0, 0, 16, 1
L23B, 57.6697, 1.09883, 57.7505, 1.09886,3, 2, 0, 0, 0, 16, 1
L26A, 41.4833, 1.04327, 45.0388, 1.04323,2, 2, 0, 0, 0, 16, 1
L26B, 45.0388, 1.04323, 48.5943, 1.04324,2, 2, 0, 0, 0, 16, 1
L12A, 34.8386, 1.05248, 35.3004, 1.05236,2, 2, 0, 0, 0, 16, 1
L12B, 35.3004, 1.05236, 35.7622, 1.05236,2, 2, 0, 0, 0, 16, 1
L8, 31.7266, 1.07172, 32.2478, 1.07118,1, 2, 0, 0, 0, 16, 1
L10A, 32.2478, 1.07118, 39.5859, 1.06355,1, 2, 0, 0, 0, 16, 1
L10B, 39.5859, 1.06355, 46.924, 1.0575,1, 2, 0, 0, 0, 16, 1
L11A, 46.924, 1.0575, 49.0179, 1.05575,1, 2, 0, 0, 0, 16, 1
L11B, 49.0179, 1.05575, 51.1119, 1.05575,1, 2, 0, 0, 0, 16, 1
L4A, 11.1374, 1.04088, 12.0219, 1.04079,2, 2, 0, 0, 0, 16, 1
L4B, 12.0219, 1.04079, 12.9065, 1.04079,2, 2, 0, 0, 0, 16, 1
