Name, Distance1, puV1, Distance2, puV2, Color, Thickness, Linetype, Markcenter, Centercode, NodeCode, NodeWidth,Title=L-N Voltage Profile, Distance in km
L1, 0, 1.05, 0.786384, 1.04833,1, 2, 0, 0, 0, 16, 1
L1, 0, 1.05, 0.786384, 1.04913,2, 2, 0, 0, 0, 16, 1
L1, 0, 1.05, 0.786384, 1.04925,3, 2, 0, 0, 0, 16, 1
L2A, 0.786384, 1.04833, 1.05004, 1.04778,1, 2, 0, 0, 0, 16, 1
L2A, 0.786384, 1.04913, 1.05004, 1.04884,2, 2, 0, 0, 0, 16, 1
L2A, 0.786384, 1.04925, 1.05004, 1.04899,3, 2, 0, 0, 0, 16, 1
L2B, 1.05004, 1.04778, 1.31369, 1.04721,1, 2, 0, 0, 0, 16, 1
L2B, 1.05004, 1.04884, 1.31369, 1.0486,2, 2, 0, 0, 0, 16, 1
L2B, 1.05004, 1.04899, 1.31369, 1.04877,3, 2, 0, 0, 0, 16, 1
L3, 1.31369, 1.04721, 11.1374, 1.02607,1, 2, 0, 0, 0, 16, 1
L3, 1.31369, 1.0486, 11.1374, 1.03948,2, 2, 0, 0, 0, 16, 1
L3, 1.31369, 1.04877, 11.1374, 1.04029,3, 2, 0, 0, 0, 16, 1
L5, 11.1374, 1.02607, 22.5674, 1.00135,1, 2, 0, 0, 0, 16, 1
L5, 11.1374, 1.03948, 22.5674, 1.02983,2, 2, 0, 0, 0, 16, 1
L5, 11.1374, 1.04029, 22.5674, 1.02992,3, 2, 0, 0, 0, 16, 1
L6, 22.5674, 1.00135, 31.6291, 0.981587,1, 2, 0, 0, 0, 16, 1
L6, 22.5674, 1.02983, 31.6291, 1.02209,2, 2, 0, 0, 0, 16, 1
L6, 22.5674, 1.02992, 31.6291, 1.02152,3, 2, 0, 0, 0, 16, 1
L7, 31.6291, 1.0552, 31.6321, 1.05519,1, 2, 0, 0, 0, 16, 1
L7, 31.6291, 1.05403, 31.6321, 1.05403,2, 2, 0, 0, 0, 16, 1
L7, 31.6291, 1.05344, 31.6321, 1.05344,3, 2, 0, 0, 0, 16, 1
L24, 31.6321, 1.05519, 31.7266, 1.05493,1, 2, 0, 0, 0, 16, 1
L24, 31.6321, 1.05403, 31.7266, 1.0539,2, 2, 0, 0, 0, 16, 1
L24, 31.6321, 1.05344, 31.7266, 1.05331,3, 2, 0, 0, 0, 16, 1
L9A, 31.7266, 1.05493, 33.2826, 1.05258,1, 2, 0, 0, 0, 16, 1
L9A, 31.7266, 1.0539, 33.2826, 1.05119,2, 2, 0, 0, 0, 16, 1
L9A, 31.7266, 1.05331, 33.2826, 1.05126,3, 2, 0, 0, 0, 16, 1
L9B, 33.2826, 1.05258, 34.8386, 1.05023,1, 2, 0, 0, 0, 16, 1
L9B, 33.2826, 1.05119, 34.8386, 1.04851,2, 2, 0, 0, 0, 16, 1
L9B, 33.2826, 1.05126, 34.8386, 1.04924,3, 2, 0, 0, 0, 16, 1
L13A, 34.8386, 1.05023, 34.9667, 1.05004,1, 2, 0, 0, 0, 16, 1
L13A, 34.8386, 1.04851, 34.9667, 1.04832,2, 2, 0, 0, 0, 16, 1
L13A, 34.8386, 1.04924, 34.9667, 1.04907,3, 2, 0, 0, 0, 16, 1
L13B, 34.9667, 1.05004, 35.0947, 1.04985,1, 2, 0, 0, 0, 16, 1
L13B, 34.9667, 1.04832, 35.0947, 1.04814,2, 2, 0, 0, 0, 16, 1
L13B, 34.9667, 1.04907, 35.0947, 1.04889,3, 2, 0, 0, 0, 16, 1
L14A, 35.0947, 1.04985, 38.2097, 1.04518,1, 2, 0, 0, 0, 16, 1
L14A, 35.0947, 1.04814, 38.2097, 1.04373,2, 2, 0, 0, 0, 16, 1
L14A, 35.0947, 1.04889, 38.2097, 1.0447,3, 2, 0, 0, 0, 16, 1
L14B, 38.2097, 1.04518, 41.3248, 1.04063,1, 2, 0, 0, 0, 16, 1
L14B, 38.2097, 1.04373, 41.3248, 1.03926,2, 2, 0, 0, 0, 16, 1
L14B, 38.2097, 1.0447, 41.3248, 1.04051,3, 2, 0, 0, 0, 16, 1
L15, 41.3248, 1.04063, 41.4833, 1.04042,1, 2, 0, 0, 0, 16, 1
L15, 41.3248, 1.03926, 41.4833, 1.03905,2, 2, 0, 0, 0, 16, 1
L15, 41.3248, 1.04051, 41.4833, 1.04031,3, 2, 0, 0, 0, 16, 1
L27, 41.4833, 1.04042, 52.7091, 1.02527,1, 2, 0, 0, 0, 16, 1
L27, 41.4833, 1.03905, 52.7091, 1.02366,2, 2, 0, 0, 0, 16, 1
L27, 41.4833, 1.04031, 52.7091, 1.02622,3, 2, 0, 0, 0, 16, 1
L25, 52.7091, 1.10857, 52.7121, 1.10857,1, 2, 0, 0, 0, 16, 1
L25, 52.7091, 1.09404, 52.7121, 1.09403,2, 2, 0, 0, 0, 16, 1
L25, 52.7091, 1.10318, 52.7121, 1.10318,3, 2, 0, 0, 0, 16, 1
L32, 52.7121, 1.07255, 55.9308, 0.990465,1, 2, 0, 0, 0, 16, 1
L32, 52.7121, 1.05835, 55.9308, 0.984521,2, 2, 0, 0, 0, 16, 1
L32, 52.7121, 1.06762, 55.9308, 0.986259,3, 2, 0, 0, 0, 16, 1
L16A, 52.7121, 1.10857, 53.4589, 1.10835,1, 2, 0, 0, 0, 16, 1
L16A, 52.7121, 1.09403, 53.4589, 1.09374,2, 2, 0, 0, 0, 16, 1
L16A, 52.7121, 1.10318, 53.4589, 1.10302,3, 2, 0, 0, 0, 16, 1
L16B, 53.4589, 1.10835, 54.2056, 1.10816,1, 2, 0, 0, 0, 16, 1
L16B, 53.4589, 1.09374, 54.2056, 1.09346,2, 2, 0, 0, 0, 16, 1
L16B, 53.4589, 1.10302, 54.2056, 1.10288,3, 2, 0, 0, 0, 16, 1
L28A, 54.2056, 1.10816, 54.4525, 1.10815,1, 2, 0, 0, 0, 16, 1
L28B, 54.4525, 1.10815, 54.6994, 1.10815,1, 2, 0, 0, 0, 16, 1
L29A, 54.2056, 1.10816, 55.0941, 1.10675,1, 2, 0, 0, 0, 16, 1
L29A, 54.2056, 1.09346, 55.0941, 1.09206,2, 2, 0, 0, 0, 16, 1
L29A, 54.2056, 1.10288, 55.0941, 1.10155,3, 2, 0, 0, 0, 16, 1
L29B, 55.0941, 1.10675, 55.9826, 1.1054,1, 2, 0, 0, 0, 16, 1
L29B, 55.0941, 1.09206, 55.9826, 1.0907,2, 2, 0, 0, 0, 16, 1
L29B, 55.0941, 1.10155, 55.9826, 1.10029,3, 2, 0, 0, 0, 16, 1
L17A, 55.9826, 1.1054, 56.2905, 1.1051,1, 2, 0, 0, 0, 16, 1
L17A, 55.9826, 1.0907, 56.2905, 1.09047,2, 2, 0, 0, 0, 16, 1
L17A, 55.9826, 1.10029, 56.2905, 1.10003,3, 2, 0, 0, 0, 16, 1
L17B, 56.2905, 1.1051, 56.5983, 1.10495,1, 2, 0, 0, 0, 16, 1
L17B, 56.2905, 1.09047, 56.5983, 1.09027,2, 2, 0, 0, 0, 16, 1
L17B, 56.2905, 1.10003, 56.5983, 1.0999,3, 2, 0, 0, 0, 16, 1
L30A, 56.5983, 1.10495, 57.0067, 1.10479,1, 2, 0, 0, 0, 16, 1
L30A, 56.5983, 1.09027, 57.0067, 1.09006,2, 2, 0, 0, 0, 16, 1
L30A, 56.5983, 1.0999, 57.0067, 1.0998,3, 2, 0, 0, 0, 16, 1
L30B, 57.0067, 1.10479, 57.4152, 1.10474,1, 2, 0, 0, 0, 16, 1
L30B, 57.0067, 1.09006, 57.4152, 1.0899,2, 2, 0, 0, 0, 16, 1
L30B, 57.0067, 1.0998, 57.4152, 1.09976,3, 2, 0, 0, 0, 16, 1
L20, 57.4152, 1.10474, 57.5005, 1.10473,1, 2, 0, 0, 0, 16, 1
L20, 57.4152, 1.0899, 57.5005, 1.08988,2, 2, 0, 0, 0, 16, 1
L20, 57.4152, 1.09976, 57.5005, 1.09976,3, 2, 0, 0, 0, 16, 1
L31A, 57.5005, 1.08988, 58.2412, 1.08972,2, 2, 0, 0, 0, 16, 1
L31B, 58.2412, 1.08972, 58.9818, 1.08972,2, 2, 0, 0, 0, 16, 1
L19A, 57.4152, 1.10474, 57.5462, 1.10472,1, 2, 0, 0, 0, 16, 1
L19A, 57.4152, 1.0899, 57.5462, 1.08987,2, 2, 0, 0, 0, 16, 1
L19A, 57.4152, 1.09976, 57.5462, 1.09974,3, 2, 0, 0, 0, 16, 1
L19B, 57.5462, 1.10472, 57.6773, 1.10471,1, 2, 0, 0, 0, 16, 1
L19B, 57.5462, 1.08987, 57.6773, 1.08986,2, 2, 0, 0, 0, 16, 1
L19B, 57.5462, 1.09974, 57.6773, 1.09973,3, 2, 0, 0, 0, 16, 1
L18, 55.9826, 1.1054, 56.068, 1.10535,1, 2, 0, 0, 0, 16, 1
L18, 55.9826, 1.0907, 56.068, 1.09064,2, 2, 0, 0, 0, 16, 1
L18, 55.9826, 1.10029, 56.068, 1.10024,3, 2, 0, 0, 0, 16, 1
L21A, 56.068, 1.10535, 56.2737, 1.10523,1, 2, 0, 0, 0, 16, 1
L21A, 56.068, 1.09064, 56.2737, 1.09048,2, 2, 0, 0, 0, 16, 1
L21A, 56.068, 1.10024, 56.2737, 1.10012,3, 2, 0, 0, 0, 16, 1
L21B, 56.2737, 1.10523, 56.4794, 1.10512,1, 2, 0, 0, 0, 16, 1
L21B, 56.2737, 1.09048, 56.4794, 1.09031,2, 2, 0, 0, 0, 16, 1
L21B, 56.2737, 1.10012, 56.4794, 1.10001,3, 2, 0, 0, 0, 16, 1
L22A, 56.4794, 1.10512, 57.0342, 1.10528,1, 2, 0, 0, 0, 16, 1
L22A, 56.4794, 1.09031, 57.0342, 1.09026,2, 2, 0, 0, 0, 16, 1
L22A, 56.4794, 1.10001, 57.0342, 1.10013,3, 2, 0, 0, 0, 16, 1
L22B, 57.0342, 1.10528, 57.5889, 1.10542,1, 2, 0, 0, 0, 16, 1
L22B, 57.0342, 1.09026, 57.5889, 1.09031,2, 2, 0, 0, 0, 16, 1
L22B, 57.0342, 1.10013, 57.5889, 1.10031,3, 2, 0, 0, 0, 16, 1
L23A, 57.5889, 1.10542, 57.6697, 1.10544,1, 2, 0, 0, 0, 16, 1
L23A, 57.5889, 1.09031, 57.6697, 1.09032,2, 2, 0, 0, 0, 16, 1
L23A, 57.5889, 1.10031, 57.6697, 1.10034,3, 2, 0, 0, 0, 16, 1
L23B, 57.6697, 1.10544, 57.7505, 1.10546,1, 2, 0, 0, 0, 16, 1
L23B, 57.6697, 1.09032, 57.7505, 1.09034,2, 2, 0, 0, 0, 16, 1
L23B, 57.6697, 1.10034, 57.7505, 1.10036,3, 2, 0, 0, 0, 16, 1
L26A, 41.4833, 1.03905, 45.0388, 1.03895,2, 2, 0, 0, 0, 16, 1
L26B, 45.0388, 1.03895, 48.5943, 1.03897,2, 2, 0, 0, 0, 16, 1
L12A, 34.8386, 1.04851, 35.3004, 1.04831,2, 2, 0, 0, 0, 16, 1
L12B, 35.3004, 1.04831, 35.7622, 1.04831,2, 2, 0, 0, 0, 16, 1
L8, 31.7266, 1.05493, 32.2478, 1.05403,1, 2, 0, 0, 0, 16, 1
L10A, 32.2478, 1.05403, 39.5859, 1.04135,1, 2, 0, 0, 0, 16, 1
L10B, 39.5859, 1.04135, 46.924, 1.03127,1, 2, 0, 0, 0, 16, 1
L11A, 46.924, 1.03127, 49.0179, 1.02837,1, 2, 0, 0, 0, 16, 1
L11B, 49.0179, 1.02837, 51.1119, 1.02837,1, 2, 0, 0, 0, 16, 1
L4A, 11.1374, 1.03948, 12.0219, 1.03934,2, 2, 0, 0, 0, 16, 1
L4B, 12.0219, 1.03934, 12.9065, 1.03934,2, 2, 0, 0, 0, 16, 1
