Name, Distance1, puV1, Distance2, puV2, Color, Thickness, Linetype, Markcenter, Centercode, NodeCode, NodeWidth,Title=L-N Voltage Profile, Distance in km
L1, 0, 1.05, 0.786384, 1.04832,1, 2, 0, 0, 0, 16, 1
L1, 0, 1.05, 0.786384, 1.04908,2, 2, 0, 0, 0, 16, 1
L1, 0, 1.05, 0.786384, 1.04914,3, 2, 0, 0, 0, 16, 1
L2A, 0.786384, 1.04832, 1.05004, 1.04776,1, 2, 0, 0, 0, 16, 1
L2A, 0.786384, 1.04908, 1.05004, 1.04878,2, 2, 0, 0, 0, 16, 1
L2A, 0.786384, 1.04914, 1.05004, 1.04885,3, 2, 0, 0, 0, 16, 1
L2B, 1.05004, 1.04776, 1.31369, 1.04719,1, 2, 0, 0, 0, 16, 1
L2B, 1.05004, 1.04878, 1.31369, 1.04851,2, 2, 0, 0, 0, 16, 1
L2B, 1.05004, 1.04885, 1.31369, 1.04859,3, 2, 0, 0, 0, 16, 1
L3, 1.31369, 1.04719, 11.1374, 1.02591,1, 2, 0, 0, 0, 16, 1
L3, 1.31369, 1.04851, 11.1374, 1.03861,2, 2, 0, 0, 0, 16, 1
L3, 1.31369, 1.04859, 11.1374, 1.03867,3, 2, 0, 0, 0, 16, 1
L5, 11.1374, 1.02591, 22.5674, 1.00108,1, 2, 0, 0, 0, 16, 1
L5, 11.1374, 1.03861, 22.5674, 1.02797,2, 2, 0, 0, 0, 16, 1
L5, 11.1374, 1.03867, 22.5674, 1.02669,3, 2, 0, 0, 0, 16, 1
L6, 22.5674, 1.00108, 31.6291, 0.981285,1, 2, 0, 0, 0, 16, 1
L6, 22.5674, 1.02797, 31.6291, 1.01949,2, 2, 0, 0, 0, 16, 1
L6, 22.5674, 1.02669, 31.6291, 1.01706,3, 2, 0, 0, 0, 16, 1
L7, 31.6291, 1.05488, 31.6321, 1.05487,1, 2, 0, 0, 0, 16, 1
L7, 31.6291, 1.05135, 31.6321, 1.05135,2, 2, 0, 0, 0, 16, 1
L7, 31.6291, 1.04884, 31.6321, 1.04884,3, 2, 0, 0, 0, 16, 1
L24, 31.6321, 1.05487, 31.7266, 1.0546,1, 2, 0, 0, 0, 16, 1
L24, 31.6321, 1.05135, 31.7266, 1.0512,2, 2, 0, 0, 0, 16, 1
L24, 31.6321, 1.04884, 31.7266, 1.04868,3, 2, 0, 0, 0, 16, 1
L9A, 31.7266, 1.0546, 33.2826, 1.05192,1, 2, 0, 0, 0, 16, 1
L9A, 31.7266, 1.0512, 33.2826, 1.0483,2, 2, 0, 0, 0, 16, 1
L9A, 31.7266, 1.04868, 33.2826, 1.04629,3, 2, 0, 0, 0, 16, 1
L9B, 33.2826, 1.05192, 34.8386, 1.04923,1, 2, 0, 0, 0, 16, 1
L9B, 33.2826, 1.0483, 34.8386, 1.04541,2, 2, 0, 0, 0, 16, 1
L9B, 33.2826, 1.04629, 34.8386, 1.04391,3, 2, 0, 0, 0, 16, 1
L13A, 34.8386, 1.04923, 34.9667, 1.04901,1, 2, 0, 0, 0, 16, 1
L13A, 34.8386, 1.04541, 34.9667, 1.04521,2, 2, 0, 0, 0, 16, 1
L13A, 34.8386, 1.04391, 34.9667, 1.04371,3, 2, 0, 0, 0, 16, 1
L13B, 34.9667, 1.04901, 35.0947, 1.04879,1, 2, 0, 0, 0, 16, 1
L13B, 34.9667, 1.04521, 35.0947, 1.04501,2, 2, 0, 0, 0, 16, 1
L13B, 34.9667, 1.04371, 35.0947, 1.04351,3, 2, 0, 0, 0, 16, 1
L14A, 35.0947, 1.04879, 38.2097, 1.04344,1, 2, 0, 0, 0, 16, 1
L14A, 35.0947, 1.04501, 38.2097, 1.0401,2, 2, 0, 0, 0, 16, 1
L14A, 35.0947, 1.04351, 38.2097, 1.03864,3, 2, 0, 0, 0, 16, 1
L14B, 38.2097, 1.04344, 41.3248, 1.0382,1, 2, 0, 0, 0, 16, 1
L14B, 38.2097, 1.0401, 41.3248, 1.03514,2, 2, 0, 0, 0, 16, 1
L14B, 38.2097, 1.03864, 41.3248, 1.03376,3, 2, 0, 0, 0, 16, 1
L15, 41.3248, 1.0382, 41.4833, 1.03795,1, 2, 0, 0, 0, 16, 1
L15, 41.3248, 1.03514, 41.4833, 1.03489,2, 2, 0, 0, 0, 16, 1
L15, 41.3248, 1.03376, 41.4833, 1.03353,3, 2, 0, 0, 0, 16, 1
L27, 41.4833, 1.03795, 52.7091, 1.02018,1, 2, 0, 0, 0, 16, 1
L27, 41.4833, 1.03489, 52.7091, 1.01766,2, 2, 0, 0, 0, 16, 1
L27, 41.4833, 1.03353, 52.7091, 1.01689,3, 2, 0, 0, 0, 16, 1
L25, 52.7091, 1.10306, 52.7121, 1.10306,1, 2, 0, 0, 0, 16, 1
L25, 52.7091, 1.08763, 52.7121, 1.08762,2, 2, 0, 0, 0, 16, 1
L25, 52.7091, 1.09316, 52.7121, 1.09315,3, 2, 0, 0, 0, 16, 1
L32, 52.7121, 1.07113, 55.9308, 0.998103,1, 2, 0, 0, 0, 16, 1
L32, 52.7121, 1.0559, 55.9308, 0.99021,2, 2, 0, 0, 0, 16, 1
L32, 52.7121, 1.06157, 55.9308, 0.989173,3, 2, 0, 0, 0, 16, 1
L16A, 52.7121, 1.10306, 53.4589, 1.1026,1, 2, 0, 0, 0, 16, 1
L16A, 52.7121, 1.08762, 53.4589, 1.08714,2, 2, 0, 0, 0, 16, 1
L16A, 52.7121, 1.09315, 53.4589, 1.09276,3, 2, 0, 0, 0, 16, 1
L16B, 53.4589, 1.1026, 54.2056, 1.10216,1, 2, 0, 0, 0, 16, 1
L16B, 53.4589, 1.08714, 54.2056, 1.08667,2, 2, 0, 0, 0, 16, 1
L16B, 53.4589, 1.09276, 54.2056, 1.09239,3, 2, 0, 0, 0, 16, 1
L28A, 54.2056, 1.10216, 54.4525, 1.10216,1, 2, 0, 0, 0, 16, 1
L28B, 54.4525, 1.10216, 54.6994, 1.10216,1, 2, 0, 0, 0, 16, 1
L29A, 54.2056, 1.10216, 55.0941, 1.10099,1, 2, 0, 0, 0, 16, 1
L29A, 54.2056, 1.08667, 55.0941, 1.0855,2, 2, 0, 0, 0, 16, 1
L29A, 54.2056, 1.09239, 55.0941, 1.09128,3, 2, 0, 0, 0, 16, 1
L29B, 55.0941, 1.10099, 55.9826, 1.09985,1, 2, 0, 0, 0, 16, 1
L29B, 55.0941, 1.0855, 55.9826, 1.08437,2, 2, 0, 0, 0, 16, 1
L29B, 55.0941, 1.09128, 55.9826, 1.09024,3, 2, 0, 0, 0, 16, 1
L17A, 55.9826, 1.09985, 56.2905, 1.09959,1, 2, 0, 0, 0, 16, 1
L17A, 55.9826, 1.08437, 56.2905, 1.08417,2, 2, 0, 0, 0, 16, 1
L17A, 55.9826, 1.09024, 56.2905, 1.09,3, 2, 0, 0, 0, 16, 1
L17B, 56.2905, 1.09959, 56.5983, 1.09945,1, 2, 0, 0, 0, 16, 1
L17B, 56.2905, 1.08417, 56.5983, 1.08399,2, 2, 0, 0, 0, 16, 1
L17B, 56.2905, 1.09, 56.5983, 1.08989,3, 2, 0, 0, 0, 16, 1
L30A, 56.5983, 1.09945, 57.0067, 1.09932,1, 2, 0, 0, 0, 16, 1
L30A, 56.5983, 1.08399, 57.0067, 1.08381,2, 2, 0, 0, 0, 16, 1
L30A, 56.5983, 1.08989, 57.0067, 1.0898,3, 2, 0, 0, 0, 16, 1
L30B, 57.0067, 1.09932, 57.4152, 1.09927,1, 2, 0, 0, 0, 16, 1
L30B, 57.0067, 1.08381, 57.4152, 1.08366,2, 2, 0, 0, 0, 16, 1
L30B, 57.0067, 1.0898, 57.4152, 1.08977,3, 2, 0, 0, 0, 16, 1
L20, 57.4152, 1.09927, 57.5005, 1.09926,1, 2, 0, 0, 0, 16, 1
L20, 57.4152, 1.08366, 57.5005, 1.08365,2, 2, 0, 0, 0, 16, 1
L20, 57.4152, 1.08977, 57.5005, 1.08977,3, 2, 0, 0, 0, 16, 1
L31A, 57.5005, 1.08365, 58.2412, 1.08351,2, 2, 0, 0, 0, 16, 1
L31B, 58.2412, 1.08351, 58.9818, 1.08351,2, 2, 0, 0, 0, 16, 1
L19A, 57.4152, 1.09927, 57.5462, 1.09925,1, 2, 0, 0, 0, 16, 1
L19A, 57.4152, 1.08366, 57.5462, 1.08364,2, 2, 0, 0, 0, 16, 1
L19A, 57.4152, 1.08977, 57.5462, 1.08975,3, 2, 0, 0, 0, 16, 1
L19B, 57.5462, 1.09925, 57.6773, 1.09924,1, 2, 0, 0, 0, 16, 1
L19B, 57.5462, 1.08364, 57.6773, 1.08363,2, 2, 0, 0, 0, 16, 1
L19B, 57.5462, 1.08975, 57.6773, 1.08974,3, 2, 0, 0, 0, 16, 1
L18, 55.9826, 1.09985, 56.068, 1.09981,1, 2, 0, 0, 0, 16, 1
L18, 55.9826, 1.08437, 56.068, 1.08432,2, 2, 0, 0, 0, 16, 1
L18, 55.9826, 1.09024, 56.068, 1.0902,3, 2, 0, 0, 0, 16, 1
L21A, 56.068, 1.09981, 56.2737, 1.09972,1, 2, 0, 0, 0, 16, 1
L21A, 56.068, 1.08432, 56.2737, 1.0842,2, 2, 0, 0, 0, 16, 1
L21A, 56.068, 1.0902, 56.2737, 1.09011,3, 2, 0, 0, 0, 16, 1
L21B, 56.2737, 1.09972, 56.4794, 1.09965,1, 2, 0, 0, 0, 16, 1
L21B, 56.2737, 1.0842, 56.4794, 1.08407,2, 2, 0, 0, 0, 16, 1
L21B, 56.2737, 1.09011, 56.4794, 1.09003,3, 2, 0, 0, 0, 16, 1
L22A, 56.4794, 1.09965, 57.0342, 1.09981,1, 2, 0, 0, 0, 16, 1
L22A, 56.4794, 1.08407, 57.0342, 1.08405,2, 2, 0, 0, 0, 16, 1
L22A, 56.4794, 1.09003, 57.0342, 1.09016,3, 2, 0, 0, 0, 16, 1
L22B, 57.0342, 1.09981, 57.5889, 1.09996,1, 2, 0, 0, 0, 16, 1
L22B, 57.0342, 1.08405, 57.5889, 1.08412,2, 2, 0, 0, 0, 16, 1
L22B, 57.0342, 1.09016, 57.5889, 1.09035,3, 2, 0, 0, 0, 16, 1
L23A, 57.5889, 1.09996, 57.6697, 1.09998,1, 2, 0, 0, 0, 16, 1
L23A, 57.5889, 1.08412, 57.6697, 1.08413,2, 2, 0, 0, 0, 16, 1
L23A, 57.5889, 1.09035, 57.6697, 1.09037,3, 2, 0, 0, 0, 16, 1
L23B, 57.6697, 1.09998, 57.7505, 1.1,1, 2, 0, 0, 0, 16, 1
L23B, 57.6697, 1.08413, 57.7505, 1.08415,2, 2, 0, 0, 0, 16, 1
L23B, 57.6697, 1.09037, 57.7505, 1.0904,3, 2, 0, 0, 0, 16, 1
L26A, 41.4833, 1.03489, 45.0388, 1.03481,2, 2, 0, 0, 0, 16, 1
L26B, 45.0388, 1.03481, 48.5943, 1.03483,2, 2, 0, 0, 0, 16, 1
L12A, 34.8386, 1.04541, 35.3004, 1.04524,2, 2, 0, 0, 0, 16, 1
L12B, 35.3004, 1.04524, 35.7622, 1.04524,2, 2, 0, 0, 0, 16, 1
L8, 31.7266, 1.0546, 32.2478, 1.05381,1, 2, 0, 0, 0, 16, 1
L10A, 32.2478, 1.05381, 39.5859, 1.04257,1, 2, 0, 0, 0, 16, 1
L10B, 39.5859, 1.04257, 46.924, 1.03364,1, 2, 0, 0, 0, 16, 1
L11A, 46.924, 1.03364, 49.0179, 1.03107,1, 2, 0, 0, 0, 16, 1
L11B, 49.0179, 1.03107, 51.1119, 1.03108,1, 2, 0, 0, 0, 16, 1
L4A, 11.1374, 1.03861, 12.0219, 1.03848,2, 2, 0, 0, 0, 16, 1
L4B, 12.0219, 1.03848, 12.9065, 1.03848,2, 2, 0, 0, 0, 16, 1
