Name, Distance1, puV1, Distance2, puV2, Color, Thickness, Linetype, Markcenter, Centercode, NodeCode, NodeWidth,Title=L-N Voltage Profile, Distance in km
L1, 0, 1.04999, 0.786384, 1.04785,1, 2, 0, 0, 0, 16, 1
L1, 0, 1.05, 0.786384, 1.0487,2, 2, 0, 0, 0, 16, 1
L1, 0, 1.05, 0.786384, 1.0487,3, 2, 0, 0, 0, 16, 1
L2A, 0.786384, 1.04785, 1.05004, 1.04713,1, 2, 0, 0, 0, 16, 1
L2A, 0.786384, 1.0487, 1.05004, 1.04827,2, 2, 0, 0, 0, 16, 1
L2A, 0.786384, 1.0487, 1.05004, 1.04826,3, 2, 0, 0, 0, 16, 1
L2B, 1.05004, 1.04713, 1.31369, 1.04641,1, 2, 0, 0, 0, 16, 1
L2B, 1.05004, 1.04827, 1.31369, 1.04788,2, 2, 0, 0, 0, 16, 1
L2B, 1.05004, 1.04826, 1.31369, 1.04785,3, 2, 0, 0, 0, 16, 1
L3, 1.31369, 1.04641, 11.1374, 1.01933,1, 2, 0, 0, 0, 16, 1
L3, 1.31369, 1.04788, 11.1374, 1.0333,2, 2, 0, 0, 0, 16, 1
L3, 1.31369, 1.04785, 11.1374, 1.03243,3, 2, 0, 0, 0, 16, 1
L5, 11.1374, 1.01933, 22.5674, 0.987843,1, 2, 0, 0, 0, 16, 1
L5, 11.1374, 1.0333, 22.5674, 1.01732,2, 2, 0, 0, 0, 16, 1
L5, 11.1374, 1.03243, 22.5674, 1.01415,3, 2, 0, 0, 0, 16, 1
L6, 22.5674, 0.987843, 31.6291, 0.96284,1, 2, 0, 0, 0, 16, 1
L6, 22.5674, 1.01732, 31.6291, 1.00469,2, 2, 0, 0, 0, 16, 1
L6, 22.5674, 1.01415, 31.6291, 0.99957,3, 2, 0, 0, 0, 16, 1
L7, 31.6291, 1.03505, 31.6321, 1.03504,1, 2, 0, 0, 0, 16, 1
L7, 31.6291, 1.03609, 31.6321, 1.03608,2, 2, 0, 0, 0, 16, 1
L7, 31.6291, 1.03081, 31.6321, 1.0308,3, 2, 0, 0, 0, 16, 1
L24, 31.6321, 1.03504, 31.7266, 1.03469,1, 2, 0, 0, 0, 16, 1
L24, 31.6321, 1.03608, 31.7266, 1.03587,2, 2, 0, 0, 0, 16, 1
L24, 31.6321, 1.0308, 31.7266, 1.03058,3, 2, 0, 0, 0, 16, 1
L9A, 31.7266, 1.03469, 33.2826, 1.03083,1, 2, 0, 0, 0, 16, 1
L9A, 31.7266, 1.03587, 33.2826, 1.03189,2, 2, 0, 0, 0, 16, 1
L9A, 31.7266, 1.03058, 33.2826, 1.02699,3, 2, 0, 0, 0, 16, 1
L9B, 33.2826, 1.03083, 34.8386, 1.02695,1, 2, 0, 0, 0, 16, 1
L9B, 33.2826, 1.03189, 34.8386, 1.02792,2, 2, 0, 0, 0, 16, 1
L9B, 33.2826, 1.02699, 34.8386, 1.02343,3, 2, 0, 0, 0, 16, 1
L13A, 34.8386, 1.02695, 34.9667, 1.02664,1, 2, 0, 0, 0, 16, 1
L13A, 34.8386, 1.02792, 34.9667, 1.02763,2, 2, 0, 0, 0, 16, 1
L13A, 34.8386, 1.02343, 34.9667, 1.02313,3, 2, 0, 0, 0, 16, 1
L13B, 34.9667, 1.02664, 35.0947, 1.02632,1, 2, 0, 0, 0, 16, 1
L13B, 34.9667, 1.02763, 35.0947, 1.02734,2, 2, 0, 0, 0, 16, 1
L13B, 34.9667, 1.02313, 35.0947, 1.02284,3, 2, 0, 0, 0, 16, 1
L14A, 35.0947, 1.02632, 38.2097, 1.0186,1, 2, 0, 0, 0, 16, 1
L14A, 35.0947, 1.02734, 38.2097, 1.02026,2, 2, 0, 0, 0, 16, 1
L14A, 35.0947, 1.02284, 38.2097, 1.0156,3, 2, 0, 0, 0, 16, 1
L14B, 38.2097, 1.0186, 41.3248, 1.011,1, 2, 0, 0, 0, 16, 1
L14B, 38.2097, 1.02026, 41.3248, 1.01314,2, 2, 0, 0, 0, 16, 1
L14B, 38.2097, 1.0156, 41.3248, 1.00837,3, 2, 0, 0, 0, 16, 1
L15, 41.3248, 1.011, 41.4833, 1.01063,1, 2, 0, 0, 0, 16, 1
L15, 41.3248, 1.01314, 41.4833, 1.01279,2, 2, 0, 0, 0, 16, 1
L15, 41.3248, 1.00837, 41.4833, 1.00801,3, 2, 0, 0, 0, 16, 1
L27, 41.4833, 1.01063, 52.7091, 0.984347,1, 2, 0, 0, 0, 16, 1
L27, 41.4833, 1.01279, 52.7091, 0.987841,2, 2, 0, 0, 0, 16, 1
L27, 41.4833, 1.00801, 52.7091, 0.982938,3, 2, 0, 0, 0, 16, 1
L25, 52.7091, 1.06432, 52.7121, 1.06432,1, 2, 0, 0, 0, 16, 1
L25, 52.7091, 1.05576, 52.7121, 1.05575,2, 2, 0, 0, 0, 16, 1
L25, 52.7091, 1.05666, 52.7121, 1.05665,3, 2, 0, 0, 0, 16, 1
L32, 52.7121, 1.03255, 55.9308, 0.959907,1, 2, 0, 0, 0, 16, 1
L32, 52.7121, 1.02413, 55.9308, 0.95868,2, 2, 0, 0, 0, 16, 1
L32, 52.7121, 1.02517, 55.9308, 0.953103,3, 2, 0, 0, 0, 16, 1
L16A, 52.7121, 1.06432, 53.4589, 1.06333,1, 2, 0, 0, 0, 16, 1
L16A, 52.7121, 1.05575, 53.4589, 1.05478,2, 2, 0, 0, 0, 16, 1
L16A, 52.7121, 1.05665, 53.4589, 1.05574,3, 2, 0, 0, 0, 16, 1
L16B, 53.4589, 1.06333, 54.2056, 1.06237,1, 2, 0, 0, 0, 16, 1
L16B, 53.4589, 1.05478, 54.2056, 1.05384,2, 2, 0, 0, 0, 16, 1
L16B, 53.4589, 1.05574, 54.2056, 1.05485,3, 2, 0, 0, 0, 16, 1
L28A, 54.2056, 1.06237, 54.4525, 1.06237,1, 2, 0, 0, 0, 16, 1
L28B, 54.4525, 1.06237, 54.6994, 1.06237,1, 2, 0, 0, 0, 16, 1
L29A, 54.2056, 1.06237, 55.0941, 1.06124,1, 2, 0, 0, 0, 16, 1
L29A, 54.2056, 1.05384, 55.0941, 1.05271,2, 2, 0, 0, 0, 16, 1
L29A, 54.2056, 1.05485, 55.0941, 1.05378,3, 2, 0, 0, 0, 16, 1
L29B, 55.0941, 1.06124, 55.9826, 1.06015,1, 2, 0, 0, 0, 16, 1
L29B, 55.0941, 1.05271, 55.9826, 1.05162,2, 2, 0, 0, 0, 16, 1
L29B, 55.0941, 1.05378, 55.9826, 1.05279,3, 2, 0, 0, 0, 16, 1
L17A, 55.9826, 1.06015, 56.2905, 1.0599,1, 2, 0, 0, 0, 16, 1
L17A, 55.9826, 1.05162, 56.2905, 1.05143,2, 2, 0, 0, 0, 16, 1
L17A, 55.9826, 1.05279, 56.2905, 1.05257,3, 2, 0, 0, 0, 16, 1
L17B, 56.2905, 1.0599, 56.5983, 1.05977,1, 2, 0, 0, 0, 16, 1
L17B, 56.2905, 1.05143, 56.5983, 1.05126,2, 2, 0, 0, 0, 16, 1
L17B, 56.2905, 1.05257, 56.5983, 1.05246,3, 2, 0, 0, 0, 16, 1
L30A, 56.5983, 1.05977, 57.0067, 1.05964,1, 2, 0, 0, 0, 16, 1
L30A, 56.5983, 1.05126, 57.0067, 1.05108,2, 2, 0, 0, 0, 16, 1
L30A, 56.5983, 1.05246, 57.0067, 1.05237,3, 2, 0, 0, 0, 16, 1
L30B, 57.0067, 1.05964, 57.4152, 1.05959,1, 2, 0, 0, 0, 16, 1
L30B, 57.0067, 1.05108, 57.4152, 1.05094,2, 2, 0, 0, 0, 16, 1
L30B, 57.0067, 1.05237, 57.4152, 1.05234,3, 2, 0, 0, 0, 16, 1
L20, 57.4152, 1.05959, 57.5005, 1.05959,1, 2, 0, 0, 0, 16, 1
L20, 57.4152, 1.05094, 57.5005, 1.05092,2, 2, 0, 0, 0, 16, 1
L20, 57.4152, 1.05234, 57.5005, 1.05234,3, 2, 0, 0, 0, 16, 1
L31A, 57.5005, 1.05092, 58.2412, 1.05079,2, 2, 0, 0, 0, 16, 1
L31B, 58.2412, 1.05079, 58.9818, 1.05079,2, 2, 0, 0, 0, 16, 1
L19A, 57.4152, 1.05959, 57.5462, 1.05957,1, 2, 0, 0, 0, 16, 1
L19A, 57.4152, 1.05094, 57.5462, 1.05092,2, 2, 0, 0, 0, 16, 1
L19A, 57.4152, 1.05234, 57.5462, 1.05232,3, 2, 0, 0, 0, 16, 1
L19B, 57.5462, 1.05957, 57.6773, 1.05957,1, 2, 0, 0, 0, 16, 1
L19B, 57.5462, 1.05092, 57.6773, 1.05091,2, 2, 0, 0, 0, 16, 1
L19B, 57.5462, 1.05232, 57.6773, 1.05232,3, 2, 0, 0, 0, 16, 1
L18, 55.9826, 1.06015, 56.068, 1.06011,1, 2, 0, 0, 0, 16, 1
L18, 55.9826, 1.05162, 56.068, 1.05157,2, 2, 0, 0, 0, 16, 1
L18, 55.9826, 1.05279, 56.068, 1.05275,3, 2, 0, 0, 0, 16, 1
L21A, 56.068, 1.06011, 56.2737, 1.06003,1, 2, 0, 0, 0, 16, 1
L21A, 56.068, 1.05157, 56.2737, 1.05145,2, 2, 0, 0, 0, 16, 1
L21A, 56.068, 1.05275, 56.2737, 1.05267,3, 2, 0, 0, 0, 16, 1
L21B, 56.2737, 1.06003, 56.4794, 1.05995,1, 2, 0, 0, 0, 16, 1
L21B, 56.2737, 1.05145, 56.4794, 1.05133,2, 2, 0, 0, 0, 16, 1
L21B, 56.2737, 1.05267, 56.4794, 1.05259,3, 2, 0, 0, 0, 16, 1
L22A, 56.4794, 1.05995, 57.0342, 1.06011,1, 2, 0, 0, 0, 16, 1
L22A, 56.4794, 1.05133, 57.0342, 1.05131,2, 2, 0, 0, 0, 16, 1
L22A, 56.4794, 1.05259, 57.0342, 1.05272,3, 2, 0, 0, 0, 16, 1
L22B, 57.0342, 1.06011, 57.5889, 1.06025,1, 2, 0, 0, 0, 16, 1
L22B, 57.0342, 1.05131, 57.5889, 1.05138,2, 2, 0, 0, 0, 16, 1
L22B, 57.0342, 1.05272, 57.5889, 1.0529,3, 2, 0, 0, 0, 16, 1
L23A, 57.5889, 1.06025, 57.6697, 1.06027,1, 2, 0, 0, 0, 16, 1
L23A, 57.5889, 1.05138, 57.6697, 1.0514,2, 2, 0, 0, 0, 16, 1
L23A, 57.5889, 1.0529, 57.6697, 1.05293,3, 2, 0, 0, 0, 16, 1
L23B, 57.6697, 1.06027, 57.7505, 1.06029,1, 2, 0, 0, 0, 16, 1
L23B, 57.6697, 1.0514, 57.7505, 1.05142,2, 2, 0, 0, 0, 16, 1
L23B, 57.6697, 1.05293, 57.7505, 1.05295,3, 2, 0, 0, 0, 16, 1
L26A, 41.4833, 1.01279, 45.0388, 1.01271,2, 2, 0, 0, 0, 16, 1
L26B, 45.0388, 1.01271, 48.5943, 1.01272,2, 2, 0, 0, 0, 16, 1
L12A, 34.8386, 1.02792, 35.3004, 1.02775,2, 2, 0, 0, 0, 16, 1
L12B, 35.3004, 1.02775, 35.7622, 1.02775,2, 2, 0, 0, 0, 16, 1
L8, 31.7266, 1.03469, 32.2478, 1.0339,1, 2, 0, 0, 0, 16, 1
L10A, 32.2478, 1.0339, 39.5859, 1.02258,1, 2, 0, 0, 0, 16, 1
L10B, 39.5859, 1.02258, 46.924, 1.0135,1, 2, 0, 0, 0, 16, 1
L11A, 46.924, 1.0135, 49.0179, 1.01089,1, 2, 0, 0, 0, 16, 1
L11B, 49.0179, 1.01089, 51.1119, 1.0109,1, 2, 0, 0, 0, 16, 1
L4A, 11.1374, 1.0333, 12.0219, 1.03318,2, 2, 0, 0, 0, 16, 1
L4B, 12.0219, 1.03318, 12.9065, 1.03318,2, 2, 0, 0, 0, 16, 1
